%YAML 1.1
%TAG !u! tag:unity3d.com,2011:
--- !u!29 &1
OcclusionCullingSettings:
  m_ObjectHideFlags: 0
  serializedVersion: 2
  m_OcclusionBakeSettings:
    smallestOccluder: 5
    smallestHole: 0.25
    backfaceThreshold: 100
  m_SceneGUID: 00000000000000000000000000000000
  m_OcclusionCullingData: {fileID: 0}
--- !u!104 &2
RenderSettings:
  m_ObjectHideFlags: 0
  serializedVersion: 9
  m_Fog: 0
  m_FogColor: {r: 0.5, g: 0.5, b: 0.5, a: 1}
  m_FogMode: 3
  m_FogDensity: 0.01
  m_LinearFogStart: 0
  m_LinearFogEnd: 300
  m_AmbientSkyColor: {r: 0.212, g: 0.227, b: 0.259, a: 1}
  m_AmbientEquatorColor: {r: 0.114, g: 0.125, b: 0.133, a: 1}
  m_AmbientGroundColor: {r: 0.047, g: 0.043, b: 0.035, a: 1}
  m_AmbientIntensity: 1
  m_AmbientMode: 0
  m_SubtractiveShadowColor: {r: 0.42, g: 0.478, b: 0.627, a: 1}
  m_SkyboxMaterial: {fileID: 10304, guid: 0000000000000000f000000000000000, type: 0}
  m_HaloStrength: 0.5
  m_FlareStrength: 1
  m_FlareFadeSpeed: 3
  m_HaloTexture: {fileID: 0}
  m_SpotCookie: {fileID: 10001, guid: 0000000000000000e000000000000000, type: 0}
  m_DefaultReflectionMode: 0
  m_DefaultReflectionResolution: 128
  m_ReflectionBounces: 1
  m_ReflectionIntensity: 1
  m_CustomReflection: {fileID: 0}
  m_Sun: {fileID: 0}
  m_IndirectSpecularColor: {r: 0, g: 0, b: 0, a: 1}
  m_UseRadianceAmbientProbe: 0
--- !u!157 &3
LightmapSettings:
  m_ObjectHideFlags: 0
  serializedVersion: 11
  m_GIWorkflowMode: 0
  m_GISettings:
    serializedVersion: 2
    m_BounceScale: 1
    m_IndirectOutputScale: 1
    m_AlbedoBoost: 1
    m_TemporalCoherenceThreshold: 1
    m_EnvironmentLightingMode: 0
    m_EnableBakedLightmaps: 1
    m_EnableRealtimeLightmaps: 1
  m_LightmapEditorSettings:
    serializedVersion: 10
    m_Resolution: 2
    m_BakeResolution: 40
    m_AtlasSize: 1024
    m_AO: 0
    m_AOMaxDistance: 1
    m_CompAOExponent: 1
    m_CompAOExponentDirect: 0
    m_Padding: 2
    m_LightmapParameters: {fileID: 0}
    m_LightmapsBakeMode: 1
    m_TextureCompression: 1
    m_FinalGather: 0
    m_FinalGatherFiltering: 1
    m_FinalGatherRayCount: 256
    m_ReflectionCompression: 2
    m_MixedBakeMode: 2
    m_BakeBackend: 0
    m_PVRSampling: 1
    m_PVRDirectSampleCount: 32
    m_PVRSampleCount: 500
    m_PVRBounces: 2
    m_PVRFilterTypeDirect: 0
    m_PVRFilterTypeIndirect: 0
    m_PVRFilterTypeAO: 0
    m_PVRFilteringMode: 1
    m_PVRCulling: 1
    m_PVRFilteringGaussRadiusDirect: 1
    m_PVRFilteringGaussRadiusIndirect: 5
    m_PVRFilteringGaussRadiusAO: 2
    m_PVRFilteringAtrousPositionSigmaDirect: 0.5
    m_PVRFilteringAtrousPositionSigmaIndirect: 2
    m_PVRFilteringAtrousPositionSigmaAO: 1
    m_ShowResolutionOverlay: 1
  m_LightingDataAsset: {fileID: 0}
  m_UseShadowmask: 1
--- !u!196 &4
NavMeshSettings:
  serializedVersion: 2
  m_ObjectHideFlags: 0
  m_BuildSettings:
    serializedVersion: 2
    agentTypeID: 0
    agentRadius: 0.5
    agentHeight: 2
    agentSlope: 45
    agentClimb: 0.4
    ledgeDropHeight: 0
    maxJumpAcrossDistance: 0
    minRegionArea: 2
    manualCellSize: 0
    cellSize: 0.16666667
    manualTileSize: 0
    tileSize: 256
    accuratePlacement: 0
    debug:
      m_Flags: 0
  m_NavMeshData: {fileID: 0}
--- !u!1 &22220379
GameObject:
  m_ObjectHideFlags: 0
  m_CorrespondingSourceObject: {fileID: 1821927720070498, guid: c62c065cf1b123a48ae2674b1dbc0c74,
    type: 2}
  m_PrefabInternal: {fileID: 1231503986}
  serializedVersion: 6
  m_Component:
  - component: {fileID: 22220380}
  - component: {fileID: 22220383}
  - component: {fileID: 22220382}
  - component: {fileID: 22220381}
  m_Layer: 5
  m_Name: AddButton_02
  m_TagString: Untagged
  m_Icon: {fileID: 0}
  m_NavMeshLayer: 0
  m_StaticEditorFlags: 0
  m_IsActive: 1
--- !u!224 &22220380
RectTransform:
  m_ObjectHideFlags: 0
  m_CorrespondingSourceObject: {fileID: 224646925671984736, guid: c62c065cf1b123a48ae2674b1dbc0c74,
    type: 2}
  m_PrefabInternal: {fileID: 1231503986}
  m_GameObject: {fileID: 22220379}
  m_LocalRotation: {x: -0, y: -0, z: -0, w: 1}
  m_LocalPosition: {x: 0, y: 0, z: 0}
  m_LocalScale: {x: 0.79135, y: 0.79135, z: 0.79135}
  m_Children:
  - {fileID: 835776986}
  m_Father: {fileID: 1096540061}
  m_RootOrder: 3
  m_LocalEulerAnglesHint: {x: 0, y: 0, z: 0}
  m_AnchorMin: {x: 0.5, y: 0.5}
  m_AnchorMax: {x: 0.5, y: 0.5}
  m_AnchoredPosition: {x: -64.7, y: 250.5}
  m_SizeDelta: {x: 20.6, y: 21.9}
  m_Pivot: {x: 0.5, y: 0.5}
--- !u!114 &22220381
MonoBehaviour:
  m_ObjectHideFlags: 0
  m_CorrespondingSourceObject: {fileID: 114107881650934270, guid: c62c065cf1b123a48ae2674b1dbc0c74,
    type: 2}
  m_PrefabInternal: {fileID: 1231503986}
  m_GameObject: {fileID: 22220379}
  m_Enabled: 1
  m_EditorHideFlags: 0
  m_Script: {fileID: 1392445389, guid: f5f67c52d1564df4a8936ccd202a3bd8, type: 3}
  m_Name: 
  m_EditorClassIdentifier: 
  m_Navigation:
    m_Mode: 3
    m_SelectOnUp: {fileID: 0}
    m_SelectOnDown: {fileID: 0}
    m_SelectOnLeft: {fileID: 0}
    m_SelectOnRight: {fileID: 0}
  m_Transition: 1
  m_Colors:
    m_NormalColor: {r: 1, g: 1, b: 1, a: 1}
    m_HighlightedColor: {r: 0.9607843, g: 0.9607843, b: 0.9607843, a: 1}
    m_PressedColor: {r: 0.78431374, g: 0.78431374, b: 0.78431374, a: 1}
    m_DisabledColor: {r: 0.78431374, g: 0.78431374, b: 0.78431374, a: 0.5019608}
    m_ColorMultiplier: 1
    m_FadeDuration: 0.1
  m_SpriteState:
    m_HighlightedSprite: {fileID: 0}
    m_PressedSprite: {fileID: 0}
    m_DisabledSprite: {fileID: 0}
  m_AnimationTriggers:
    m_NormalTrigger: Normal
    m_HighlightedTrigger: Highlighted
    m_PressedTrigger: Pressed
    m_DisabledTrigger: Disabled
  m_Interactable: 1
  m_TargetGraphic: {fileID: 22220382}
  m_OnClick:
    m_PersistentCalls:
      m_Calls: []
    m_TypeName: UnityEngine.UI.Button+ButtonClickedEvent, UnityEngine.UI, Version=1.0.0.0,
      Culture=neutral, PublicKeyToken=null
--- !u!114 &22220382
MonoBehaviour:
  m_ObjectHideFlags: 0
  m_CorrespondingSourceObject: {fileID: 114828941021979386, guid: c62c065cf1b123a48ae2674b1dbc0c74,
    type: 2}
  m_PrefabInternal: {fileID: 1231503986}
  m_GameObject: {fileID: 22220379}
  m_Enabled: 1
  m_EditorHideFlags: 0
  m_Script: {fileID: -765806418, guid: f5f67c52d1564df4a8936ccd202a3bd8, type: 3}
  m_Name: 
  m_EditorClassIdentifier: 
  m_Material: {fileID: 0}
  m_Color: {r: 1, g: 1, b: 1, a: 1}
  m_RaycastTarget: 1
  m_OnCullStateChanged:
    m_PersistentCalls:
      m_Calls: []
    m_TypeName: UnityEngine.UI.MaskableGraphic+CullStateChangedEvent, UnityEngine.UI,
      Version=1.0.0.0, Culture=neutral, PublicKeyToken=null
  m_Sprite: {fileID: 21300000, guid: ac48c5f245565aa46873494d16310ed4, type: 3}
  m_Type: 0
  m_PreserveAspect: 0
  m_FillCenter: 1
  m_FillMethod: 4
  m_FillAmount: 1
  m_FillClockwise: 1
  m_FillOrigin: 0
--- !u!222 &22220383
CanvasRenderer:
  m_ObjectHideFlags: 0
  m_CorrespondingSourceObject: {fileID: 222327242695082020, guid: c62c065cf1b123a48ae2674b1dbc0c74,
    type: 2}
  m_PrefabInternal: {fileID: 1231503986}
  m_GameObject: {fileID: 22220379}
  m_CullTransparentMesh: 0
--- !u!1 &32824926
GameObject:
  m_ObjectHideFlags: 0
  m_CorrespondingSourceObject: {fileID: 1979313483244358, guid: c62c065cf1b123a48ae2674b1dbc0c74,
    type: 2}
  m_PrefabInternal: {fileID: 1231503986}
  serializedVersion: 6
  m_Component:
  - component: {fileID: 32824927}
  - component: {fileID: 32824929}
  - component: {fileID: 32824928}
  m_Layer: 5
  m_Name: Ammount
  m_TagString: Untagged
  m_Icon: {fileID: 0}
  m_NavMeshLayer: 0
  m_StaticEditorFlags: 0
  m_IsActive: 1
--- !u!224 &32824927
RectTransform:
  m_ObjectHideFlags: 0
  m_CorrespondingSourceObject: {fileID: 224420579001802278, guid: c62c065cf1b123a48ae2674b1dbc0c74,
    type: 2}
  m_PrefabInternal: {fileID: 1231503986}
  m_GameObject: {fileID: 32824926}
  m_LocalRotation: {x: -0, y: -0, z: -0, w: 1}
  m_LocalPosition: {x: 0, y: 0, z: 0}
  m_LocalScale: {x: 1.3399999, y: 1.3399999, z: 1.3399999}
  m_Children: []
  m_Father: {fileID: 1096540061}
  m_RootOrder: 4
  m_LocalEulerAnglesHint: {x: 0, y: 0, z: 0}
  m_AnchorMin: {x: 0.5, y: 0.5}
  m_AnchorMax: {x: 0.5, y: 0.5}
  m_AnchoredPosition: {x: -77.40001, y: 249.29999}
  m_SizeDelta: {x: 30.4, y: 8.5}
  m_Pivot: {x: 0.5, y: 0.5}
--- !u!114 &32824928
MonoBehaviour:
  m_ObjectHideFlags: 0
  m_CorrespondingSourceObject: {fileID: 114931902957415106, guid: c62c065cf1b123a48ae2674b1dbc0c74,
    type: 2}
  m_PrefabInternal: {fileID: 1231503986}
  m_GameObject: {fileID: 32824926}
  m_Enabled: 1
  m_EditorHideFlags: 0
  m_Script: {fileID: 708705254, guid: f5f67c52d1564df4a8936ccd202a3bd8, type: 3}
  m_Name: 
  m_EditorClassIdentifier: 
  m_Material: {fileID: 0}
  m_Color: {r: 1, g: 1, b: 1, a: 1}
  m_RaycastTarget: 1
  m_OnCullStateChanged:
    m_PersistentCalls:
      m_Calls: []
    m_TypeName: UnityEngine.UI.MaskableGraphic+CullStateChangedEvent, UnityEngine.UI,
      Version=1.0.0.0, Culture=neutral, PublicKeyToken=null
  m_FontData:
    m_Font: {fileID: 12800000, guid: 0e2f3cc82c877dd498854d3394c3f74d, type: 3}
    m_FontSize: 7
    m_FontStyle: 0
    m_BestFit: 0
    m_MinSize: 0
    m_MaxSize: 40
    m_Alignment: 0
    m_AlignByGeometry: 0
    m_RichText: 1
    m_HorizontalOverflow: 0
    m_VerticalOverflow: 0
    m_LineSpacing: 1
  m_Text: '12

'
--- !u!222 &32824929
CanvasRenderer:
  m_ObjectHideFlags: 0
  m_CorrespondingSourceObject: {fileID: 222624638966677518, guid: c62c065cf1b123a48ae2674b1dbc0c74,
    type: 2}
  m_PrefabInternal: {fileID: 1231503986}
  m_GameObject: {fileID: 32824926}
  m_CullTransparentMesh: 0
--- !u!1 &78633630
GameObject:
  m_ObjectHideFlags: 0
  m_CorrespondingSourceObject: {fileID: 1662160904658242, guid: c62c065cf1b123a48ae2674b1dbc0c74,
    type: 2}
  m_PrefabInternal: {fileID: 1231503986}
  serializedVersion: 6
  m_Component:
  - component: {fileID: 78633634}
  - component: {fileID: 78633633}
  - component: {fileID: 78633632}
  - component: {fileID: 78633631}
  m_Layer: 5
  m_Name: Failed_Screen
  m_TagString: Untagged
  m_Icon: {fileID: 0}
  m_NavMeshLayer: 0
  m_StaticEditorFlags: 0
  m_IsActive: 1
--- !u!114 &78633631
MonoBehaviour:
  m_ObjectHideFlags: 0
  m_CorrespondingSourceObject: {fileID: 114343660740363924, guid: c62c065cf1b123a48ae2674b1dbc0c74,
    type: 2}
  m_PrefabInternal: {fileID: 1231503986}
  m_GameObject: {fileID: 78633630}
  m_Enabled: 1
  m_EditorHideFlags: 0
  m_Script: {fileID: 1301386320, guid: f5f67c52d1564df4a8936ccd202a3bd8, type: 3}
  m_Name: 
  m_EditorClassIdentifier: 
  m_IgnoreReversedGraphics: 1
  m_BlockingObjects: 0
  m_BlockingMask:
    serializedVersion: 2
    m_Bits: 4294967295
--- !u!114 &78633632
MonoBehaviour:
  m_ObjectHideFlags: 0
  m_CorrespondingSourceObject: {fileID: 114696835268556182, guid: c62c065cf1b123a48ae2674b1dbc0c74,
    type: 2}
  m_PrefabInternal: {fileID: 1231503986}
  m_GameObject: {fileID: 78633630}
  m_Enabled: 1
  m_EditorHideFlags: 0
  m_Script: {fileID: 1980459831, guid: f5f67c52d1564df4a8936ccd202a3bd8, type: 3}
  m_Name: 
  m_EditorClassIdentifier: 
  m_UiScaleMode: 0
  m_ReferencePixelsPerUnit: 100
  m_ScaleFactor: 1
  m_ReferenceResolution: {x: 800, y: 600}
  m_ScreenMatchMode: 0
  m_MatchWidthOrHeight: 0
  m_PhysicalUnit: 3
  m_FallbackScreenDPI: 96
  m_DefaultSpriteDPI: 96
  m_DynamicPixelsPerUnit: 1
--- !u!223 &78633633
Canvas:
  m_ObjectHideFlags: 0
  m_CorrespondingSourceObject: {fileID: 223968248199040964, guid: c62c065cf1b123a48ae2674b1dbc0c74,
    type: 2}
  m_PrefabInternal: {fileID: 1231503986}
  m_GameObject: {fileID: 78633630}
  m_Enabled: 1
  serializedVersion: 3
  m_RenderMode: 0
  m_Camera: {fileID: 0}
  m_PlaneDistance: 100
  m_PixelPerfect: 0
  m_ReceivesEvents: 1
  m_OverrideSorting: 0
  m_OverridePixelPerfect: 0
  m_SortingBucketNormalizedSize: 0
  m_AdditionalShaderChannelsFlag: 0
  m_SortingLayerID: 0
  m_SortingOrder: 0
  m_TargetDisplay: 0
--- !u!224 &78633634
RectTransform:
  m_ObjectHideFlags: 0
  m_CorrespondingSourceObject: {fileID: 224212230736072028, guid: c62c065cf1b123a48ae2674b1dbc0c74,
    type: 2}
  m_PrefabInternal: {fileID: 1231503986}
  m_GameObject: {fileID: 78633630}
  m_LocalRotation: {x: 0, y: 0, z: 0, w: 1}
  m_LocalPosition: {x: 0, y: 0, z: 0}
  m_LocalScale: {x: 0, y: 0, z: 0}
  m_Children:
  - {fileID: 879532672}
  - {fileID: 340175750}
  - {fileID: 1096540061}
  - {fileID: 912312931}
  - {fileID: 86826094}
  - {fileID: 577327614}
  - {fileID: 873882351}
  - {fileID: 531893375}
  - {fileID: 2109430583}
  - {fileID: 1875850446}
  - {fileID: 1680466963}
  - {fileID: 2109994459}
  - {fileID: 413301244}
  m_Father: {fileID: 0}
  m_RootOrder: 0
  m_LocalEulerAnglesHint: {x: 0, y: 0, z: 0}
  m_AnchorMin: {x: 0, y: 0}
  m_AnchorMax: {x: 0, y: 0}
  m_AnchoredPosition: {x: 0, y: 0}
  m_SizeDelta: {x: 0, y: 0}
  m_Pivot: {x: 0, y: 0}
--- !u!1 &86826093
GameObject:
  m_ObjectHideFlags: 0
  m_CorrespondingSourceObject: {fileID: 1190638557304310, guid: c62c065cf1b123a48ae2674b1dbc0c74,
    type: 2}
  m_PrefabInternal: {fileID: 1231503986}
  serializedVersion: 6
  m_Component:
  - component: {fileID: 86826094}
  - component: {fileID: 86826096}
  - component: {fileID: 86826095}
  m_Layer: 5
  m_Name: Stars_Enabled
  m_TagString: Untagged
  m_Icon: {fileID: 0}
  m_NavMeshLayer: 0
  m_StaticEditorFlags: 0
  m_IsActive: 1
--- !u!224 &86826094
RectTransform:
  m_ObjectHideFlags: 0
  m_CorrespondingSourceObject: {fileID: 224071345764258742, guid: c62c065cf1b123a48ae2674b1dbc0c74,
    type: 2}
  m_PrefabInternal: {fileID: 1231503986}
  m_GameObject: {fileID: 86826093}
  m_LocalRotation: {x: 0, y: 0, z: 0, w: 1}
  m_LocalPosition: {x: 0, y: 0, z: 0}
  m_LocalScale: {x: 0.61701566, y: 0.6170157, z: 0.6170157}
  m_Children: []
  m_Father: {fileID: 78633634}
  m_RootOrder: 4
  m_LocalEulerAnglesHint: {x: 0, y: 0, z: 0}
  m_AnchorMin: {x: 0.5, y: 0.5}
  m_AnchorMax: {x: 0.5, y: 0.5}
  m_AnchoredPosition: {x: -69.8, y: 4.9}
  m_SizeDelta: {x: 100, y: 100}
  m_Pivot: {x: 0.5, y: 0.5}
--- !u!114 &86826095
MonoBehaviour:
  m_ObjectHideFlags: 0
  m_CorrespondingSourceObject: {fileID: 114272986012180698, guid: c62c065cf1b123a48ae2674b1dbc0c74,
    type: 2}
  m_PrefabInternal: {fileID: 1231503986}
  m_GameObject: {fileID: 86826093}
  m_Enabled: 1
  m_EditorHideFlags: 0
  m_Script: {fileID: -765806418, guid: f5f67c52d1564df4a8936ccd202a3bd8, type: 3}
  m_Name: 
  m_EditorClassIdentifier: 
  m_Material: {fileID: 0}
  m_Color: {r: 1, g: 1, b: 1, a: 1}
  m_RaycastTarget: 1
  m_OnCullStateChanged:
    m_PersistentCalls:
      m_Calls: []
    m_TypeName: UnityEngine.UI.MaskableGraphic+CullStateChangedEvent, UnityEngine.UI,
      Version=1.0.0.0, Culture=neutral, PublicKeyToken=null
  m_Sprite: {fileID: 21300000, guid: fa5fb4710577d9f4d928a315ce4aa8ed, type: 3}
  m_Type: 0
  m_PreserveAspect: 0
  m_FillCenter: 1
  m_FillMethod: 4
  m_FillAmount: 1
  m_FillClockwise: 1
  m_FillOrigin: 0
--- !u!222 &86826096
CanvasRenderer:
  m_ObjectHideFlags: 0
  m_CorrespondingSourceObject: {fileID: 222995277219917660, guid: c62c065cf1b123a48ae2674b1dbc0c74,
    type: 2}
  m_PrefabInternal: {fileID: 1231503986}
  m_GameObject: {fileID: 86826093}
  m_CullTransparentMesh: 0
--- !u!1 &121812102
GameObject:
  m_ObjectHideFlags: 0
  m_CorrespondingSourceObject: {fileID: 1190440518764756, guid: c62c065cf1b123a48ae2674b1dbc0c74,
    type: 2}
  m_PrefabInternal: {fileID: 1231503986}
  serializedVersion: 6
  m_Component:
  - component: {fileID: 121812103}
  - component: {fileID: 121812105}
  - component: {fileID: 121812104}
  m_Layer: 5
  m_Name: Ico_Play
  m_TagString: Untagged
  m_Icon: {fileID: 0}
  m_NavMeshLayer: 0
  m_StaticEditorFlags: 0
  m_IsActive: 1
--- !u!224 &121812103
RectTransform:
  m_ObjectHideFlags: 0
  m_CorrespondingSourceObject: {fileID: 224988104126614348, guid: c62c065cf1b123a48ae2674b1dbc0c74,
    type: 2}
  m_PrefabInternal: {fileID: 1231503986}
  m_GameObject: {fileID: 121812102}
  m_LocalRotation: {x: -0, y: -0, z: -0, w: 1}
  m_LocalPosition: {x: 0, y: 0, z: 0}
  m_LocalScale: {x: 1.3302633, y: 1.0808363, z: 1.3302631}
  m_Children: []
  m_Father: {fileID: 2109994459}
  m_RootOrder: 0
  m_LocalEulerAnglesHint: {x: 0, y: 0, z: 0}
  m_AnchorMin: {x: 0.5, y: 0.5}
  m_AnchorMax: {x: 0.5, y: 0.5}
  m_AnchoredPosition: {x: 3, y: 5.000052}
  m_SizeDelta: {x: 22, y: 33}
  m_Pivot: {x: 0.5, y: 0.5}
--- !u!114 &121812104
MonoBehaviour:
  m_ObjectHideFlags: 0
  m_CorrespondingSourceObject: {fileID: 114184977789795778, guid: c62c065cf1b123a48ae2674b1dbc0c74,
    type: 2}
  m_PrefabInternal: {fileID: 1231503986}
  m_GameObject: {fileID: 121812102}
  m_Enabled: 1
  m_EditorHideFlags: 0
  m_Script: {fileID: -765806418, guid: f5f67c52d1564df4a8936ccd202a3bd8, type: 3}
  m_Name: 
  m_EditorClassIdentifier: 
  m_Material: {fileID: 0}
  m_Color: {r: 1, g: 1, b: 1, a: 1}
  m_RaycastTarget: 1
  m_OnCullStateChanged:
    m_PersistentCalls:
      m_Calls: []
    m_TypeName: UnityEngine.UI.MaskableGraphic+CullStateChangedEvent, UnityEngine.UI,
      Version=1.0.0.0, Culture=neutral, PublicKeyToken=null
  m_Sprite: {fileID: 21300000, guid: 84d98b734cd38c340a7f72e46a8739cf, type: 3}
  m_Type: 0
  m_PreserveAspect: 0
  m_FillCenter: 1
  m_FillMethod: 4
  m_FillAmount: 1
  m_FillClockwise: 1
  m_FillOrigin: 0
--- !u!222 &121812105
CanvasRenderer:
  m_ObjectHideFlags: 0
  m_CorrespondingSourceObject: {fileID: 222648466107166846, guid: c62c065cf1b123a48ae2674b1dbc0c74,
    type: 2}
  m_PrefabInternal: {fileID: 1231503986}
  m_GameObject: {fileID: 121812102}
  m_CullTransparentMesh: 0
--- !u!1001 &154609813
Prefab:
  m_ObjectHideFlags: 0
  serializedVersion: 2
  m_Modification:
    m_TransformParent: {fileID: 0}
    m_Modifications:
    - target: {fileID: 4159094325320154, guid: d5148bd8673e1b3448cf42b26f4fd8ad, type: 2}
      propertyPath: m_LocalPosition.x
      value: 0
      objectReference: {fileID: 0}
    - target: {fileID: 4159094325320154, guid: d5148bd8673e1b3448cf42b26f4fd8ad, type: 2}
      propertyPath: m_LocalPosition.y
      value: 0
      objectReference: {fileID: 0}
    - target: {fileID: 4159094325320154, guid: d5148bd8673e1b3448cf42b26f4fd8ad, type: 2}
      propertyPath: m_LocalPosition.z
      value: 0
      objectReference: {fileID: 0}
    - target: {fileID: 4159094325320154, guid: d5148bd8673e1b3448cf42b26f4fd8ad, type: 2}
      propertyPath: m_LocalRotation.x
      value: 0
      objectReference: {fileID: 0}
    - target: {fileID: 4159094325320154, guid: d5148bd8673e1b3448cf42b26f4fd8ad, type: 2}
      propertyPath: m_LocalRotation.y
      value: 0
      objectReference: {fileID: 0}
    - target: {fileID: 4159094325320154, guid: d5148bd8673e1b3448cf42b26f4fd8ad, type: 2}
      propertyPath: m_LocalRotation.z
      value: 0
      objectReference: {fileID: 0}
    - target: {fileID: 4159094325320154, guid: d5148bd8673e1b3448cf42b26f4fd8ad, type: 2}
      propertyPath: m_LocalRotation.w
      value: 1
      objectReference: {fileID: 0}
    - target: {fileID: 4159094325320154, guid: d5148bd8673e1b3448cf42b26f4fd8ad, type: 2}
      propertyPath: m_RootOrder
      value: 2
      objectReference: {fileID: 0}
    m_RemovedComponents: []
  m_SourcePrefab: {fileID: 100100000, guid: d5148bd8673e1b3448cf42b26f4fd8ad, type: 2}
  m_RootGameObject: {fileID: 888496456}
  m_IsPrefabAsset: 0
--- !u!1 &340175749
GameObject:
  m_ObjectHideFlags: 0
  m_CorrespondingSourceObject: {fileID: 1705741762898440, guid: c62c065cf1b123a48ae2674b1dbc0c74,
    type: 2}
  m_PrefabInternal: {fileID: 1231503986}
  serializedVersion: 6
  m_Component:
  - component: {fileID: 340175750}
  - component: {fileID: 340175752}
  - component: {fileID: 340175751}
  m_Layer: 5
  m_Name: Panel
  m_TagString: Untagged
  m_Icon: {fileID: 0}
  m_NavMeshLayer: 0
  m_StaticEditorFlags: 0
  m_IsActive: 1
--- !u!224 &340175750
RectTransform:
  m_ObjectHideFlags: 0
  m_CorrespondingSourceObject: {fileID: 224595388515396708, guid: c62c065cf1b123a48ae2674b1dbc0c74,
    type: 2}
  m_PrefabInternal: {fileID: 1231503986}
  m_GameObject: {fileID: 340175749}
  m_LocalRotation: {x: 0, y: 0, z: 0, w: 1}
  m_LocalPosition: {x: 0, y: 0, z: 0}
  m_LocalScale: {x: 1, y: 1, z: 1}
  m_Children: []
  m_Father: {fileID: 78633634}
  m_RootOrder: 1
  m_LocalEulerAnglesHint: {x: 0, y: 0, z: 0}
  m_AnchorMin: {x: 0.5, y: 0.5}
  m_AnchorMax: {x: 0.5, y: 0.5}
  m_AnchoredPosition: {x: 0, y: 0}
  m_SizeDelta: {x: 246, y: 339}
  m_Pivot: {x: 0.5, y: 0.5}
--- !u!114 &340175751
MonoBehaviour:
  m_ObjectHideFlags: 0
  m_CorrespondingSourceObject: {fileID: 114129791359673712, guid: c62c065cf1b123a48ae2674b1dbc0c74,
    type: 2}
  m_PrefabInternal: {fileID: 1231503986}
  m_GameObject: {fileID: 340175749}
  m_Enabled: 1
  m_EditorHideFlags: 0
  m_Script: {fileID: -765806418, guid: f5f67c52d1564df4a8936ccd202a3bd8, type: 3}
  m_Name: 
  m_EditorClassIdentifier: 
  m_Material: {fileID: 0}
  m_Color: {r: 1, g: 1, b: 1, a: 1}
  m_RaycastTarget: 1
  m_OnCullStateChanged:
    m_PersistentCalls:
      m_Calls: []
    m_TypeName: UnityEngine.UI.MaskableGraphic+CullStateChangedEvent, UnityEngine.UI,
      Version=1.0.0.0, Culture=neutral, PublicKeyToken=null
  m_Sprite: {fileID: 21300000, guid: 394e1780ebe988046a18a2eb085b0967, type: 3}
  m_Type: 0
  m_PreserveAspect: 1
  m_FillCenter: 1
  m_FillMethod: 4
  m_FillAmount: 1
  m_FillClockwise: 1
  m_FillOrigin: 0
--- !u!222 &340175752
CanvasRenderer:
  m_ObjectHideFlags: 0
  m_CorrespondingSourceObject: {fileID: 222979660807095624, guid: c62c065cf1b123a48ae2674b1dbc0c74,
    type: 2}
  m_PrefabInternal: {fileID: 1231503986}
  m_GameObject: {fileID: 340175749}
  m_CullTransparentMesh: 0
--- !u!1 &359138310
GameObject:
  m_ObjectHideFlags: 0
  m_CorrespondingSourceObject: {fileID: 1493645995634784, guid: c62c065cf1b123a48ae2674b1dbc0c74,
    type: 2}
  m_PrefabInternal: {fileID: 1231503986}
  serializedVersion: 6
  m_Component:
  - component: {fileID: 359138311}
  - component: {fileID: 359138313}
  - component: {fileID: 359138312}
  m_Layer: 5
  m_Name: Icon_Cross
  m_TagString: Untagged
  m_Icon: {fileID: 0}
  m_NavMeshLayer: 0
  m_StaticEditorFlags: 0
  m_IsActive: 1
--- !u!224 &359138311
RectTransform:
  m_ObjectHideFlags: 0
  m_CorrespondingSourceObject: {fileID: 224872444044380690, guid: c62c065cf1b123a48ae2674b1dbc0c74,
    type: 2}
  m_PrefabInternal: {fileID: 1231503986}
  m_GameObject: {fileID: 359138310}
  m_LocalRotation: {x: 0, y: 0, z: 0, w: 1}
  m_LocalPosition: {x: 0, y: 0, z: 0}
  m_LocalScale: {x: 0.56171584, y: 0.5617158, z: 0.5617158}
  m_Children: []
  m_Father: {fileID: 587227468}
  m_RootOrder: 0
  m_LocalEulerAnglesHint: {x: 0, y: 0, z: 0}
  m_AnchorMin: {x: 0.5, y: 0.5}
  m_AnchorMax: {x: 0.5, y: 0.5}
  m_AnchoredPosition: {x: -0.000011683, y: 1.2}
  m_SizeDelta: {x: 23.6, y: 24.3}
  m_Pivot: {x: 0.5, y: 0.5}
--- !u!114 &359138312
MonoBehaviour:
  m_ObjectHideFlags: 0
  m_CorrespondingSourceObject: {fileID: 114049344856064666, guid: c62c065cf1b123a48ae2674b1dbc0c74,
    type: 2}
  m_PrefabInternal: {fileID: 1231503986}
  m_GameObject: {fileID: 359138310}
  m_Enabled: 1
  m_EditorHideFlags: 0
  m_Script: {fileID: -765806418, guid: f5f67c52d1564df4a8936ccd202a3bd8, type: 3}
  m_Name: 
  m_EditorClassIdentifier: 
  m_Material: {fileID: 0}
  m_Color: {r: 1, g: 1, b: 1, a: 1}
  m_RaycastTarget: 1
  m_OnCullStateChanged:
    m_PersistentCalls:
      m_Calls: []
    m_TypeName: UnityEngine.UI.MaskableGraphic+CullStateChangedEvent, UnityEngine.UI,
      Version=1.0.0.0, Culture=neutral, PublicKeyToken=null
  m_Sprite: {fileID: 21300000, guid: 18c35ed11480c3542bb9888435500b6b, type: 3}
  m_Type: 0
  m_PreserveAspect: 0
  m_FillCenter: 1
  m_FillMethod: 4
  m_FillAmount: 1
  m_FillClockwise: 1
  m_FillOrigin: 0
--- !u!222 &359138313
CanvasRenderer:
  m_ObjectHideFlags: 0
  m_CorrespondingSourceObject: {fileID: 222173326159814372, guid: c62c065cf1b123a48ae2674b1dbc0c74,
    type: 2}
  m_PrefabInternal: {fileID: 1231503986}
  m_GameObject: {fileID: 359138310}
  m_CullTransparentMesh: 0
--- !u!1 &413301243
GameObject:
  m_ObjectHideFlags: 0
  m_CorrespondingSourceObject: {fileID: 1941481230095304, guid: c62c065cf1b123a48ae2674b1dbc0c74,
    type: 2}
  m_PrefabInternal: {fileID: 1231503986}
  serializedVersion: 6
  m_Component:
  - component: {fileID: 413301244}
  - component: {fileID: 413301247}
  - component: {fileID: 413301246}
  - component: {fileID: 413301245}
  m_Layer: 5
  m_Name: Menu
  m_TagString: Untagged
  m_Icon: {fileID: 0}
  m_NavMeshLayer: 0
  m_StaticEditorFlags: 0
  m_IsActive: 1
--- !u!224 &413301244
RectTransform:
  m_ObjectHideFlags: 0
  m_CorrespondingSourceObject: {fileID: 224216496667370560, guid: c62c065cf1b123a48ae2674b1dbc0c74,
    type: 2}
  m_PrefabInternal: {fileID: 1231503986}
  m_GameObject: {fileID: 413301243}
  m_LocalRotation: {x: -0, y: -0, z: -0, w: 1}
  m_LocalPosition: {x: 0, y: 0, z: 0}
  m_LocalScale: {x: 0.41329, y: 0.41329, z: 0.41329}
  m_Children:
  - {fileID: 1163625758}
  m_Father: {fileID: 78633634}
  m_RootOrder: 12
  m_LocalEulerAnglesHint: {x: 0, y: 0, z: 0}
  m_AnchorMin: {x: 0.5, y: 0.5}
  m_AnchorMax: {x: 0.5, y: 0.5}
  m_AnchoredPosition: {x: -48.8, y: -130.4}
  m_SizeDelta: {x: 86, y: 94}
  m_Pivot: {x: 0.5, y: 0.5}
--- !u!114 &413301245
MonoBehaviour:
  m_ObjectHideFlags: 0
  m_CorrespondingSourceObject: {fileID: 114378649438373462, guid: c62c065cf1b123a48ae2674b1dbc0c74,
    type: 2}
  m_PrefabInternal: {fileID: 1231503986}
  m_GameObject: {fileID: 413301243}
  m_Enabled: 1
  m_EditorHideFlags: 0
  m_Script: {fileID: 1392445389, guid: f5f67c52d1564df4a8936ccd202a3bd8, type: 3}
  m_Name: 
  m_EditorClassIdentifier: 
  m_Navigation:
    m_Mode: 3
    m_SelectOnUp: {fileID: 0}
    m_SelectOnDown: {fileID: 0}
    m_SelectOnLeft: {fileID: 0}
    m_SelectOnRight: {fileID: 0}
  m_Transition: 1
  m_Colors:
    m_NormalColor: {r: 1, g: 1, b: 1, a: 1}
    m_HighlightedColor: {r: 0.9607843, g: 0.9607843, b: 0.9607843, a: 1}
    m_PressedColor: {r: 0.78431374, g: 0.78431374, b: 0.78431374, a: 1}
    m_DisabledColor: {r: 0.78431374, g: 0.78431374, b: 0.78431374, a: 0.5019608}
    m_ColorMultiplier: 1
    m_FadeDuration: 0.1
  m_SpriteState:
    m_HighlightedSprite: {fileID: 0}
    m_PressedSprite: {fileID: 0}
    m_DisabledSprite: {fileID: 0}
  m_AnimationTriggers:
    m_NormalTrigger: Normal
    m_HighlightedTrigger: Highlighted
    m_PressedTrigger: Pressed
    m_DisabledTrigger: Disabled
  m_Interactable: 1
  m_TargetGraphic: {fileID: 413301246}
  m_OnClick:
    m_PersistentCalls:
      m_Calls: []
    m_TypeName: UnityEngine.UI.Button+ButtonClickedEvent, UnityEngine.UI, Version=1.0.0.0,
      Culture=neutral, PublicKeyToken=null
--- !u!114 &413301246
MonoBehaviour:
  m_ObjectHideFlags: 0
  m_CorrespondingSourceObject: {fileID: 114999982871241274, guid: c62c065cf1b123a48ae2674b1dbc0c74,
    type: 2}
  m_PrefabInternal: {fileID: 1231503986}
  m_GameObject: {fileID: 413301243}
  m_Enabled: 1
  m_EditorHideFlags: 0
  m_Script: {fileID: -765806418, guid: f5f67c52d1564df4a8936ccd202a3bd8, type: 3}
  m_Name: 
  m_EditorClassIdentifier: 
  m_Material: {fileID: 0}
  m_Color: {r: 1, g: 1, b: 1, a: 1}
  m_RaycastTarget: 1
  m_OnCullStateChanged:
    m_PersistentCalls:
      m_Calls: []
    m_TypeName: UnityEngine.UI.MaskableGraphic+CullStateChangedEvent, UnityEngine.UI,
      Version=1.0.0.0, Culture=neutral, PublicKeyToken=null
  m_Sprite: {fileID: 21300000, guid: ac48c5f245565aa46873494d16310ed4, type: 3}
  m_Type: 0
  m_PreserveAspect: 0
  m_FillCenter: 1
  m_FillMethod: 4
  m_FillAmount: 1
  m_FillClockwise: 1
  m_FillOrigin: 0
--- !u!222 &413301247
CanvasRenderer:
  m_ObjectHideFlags: 0
  m_CorrespondingSourceObject: {fileID: 222246060760547192, guid: c62c065cf1b123a48ae2674b1dbc0c74,
    type: 2}
  m_PrefabInternal: {fileID: 1231503986}
  m_GameObject: {fileID: 413301243}
  m_CullTransparentMesh: 0
--- !u!1 &531893374
GameObject:
  m_ObjectHideFlags: 0
  m_CorrespondingSourceObject: {fileID: 1823894465338848, guid: c62c065cf1b123a48ae2674b1dbc0c74,
    type: 2}
  m_PrefabInternal: {fileID: 1231503986}
  serializedVersion: 6
  m_Component:
  - component: {fileID: 531893375}
  - component: {fileID: 531893377}
  - component: {fileID: 531893376}
  m_Layer: 5
  m_Name: Txt
  m_TagString: Untagged
  m_Icon: {fileID: 0}
  m_NavMeshLayer: 0
  m_StaticEditorFlags: 0
  m_IsActive: 1
--- !u!224 &531893375
RectTransform:
  m_ObjectHideFlags: 0
  m_CorrespondingSourceObject: {fileID: 224992271206370676, guid: c62c065cf1b123a48ae2674b1dbc0c74,
    type: 2}
  m_PrefabInternal: {fileID: 1231503986}
  m_GameObject: {fileID: 531893374}
  m_LocalRotation: {x: -0, y: -0, z: -0, w: 1}
  m_LocalPosition: {x: 0, y: 0, z: 0}
  m_LocalScale: {x: 0.41255996, y: 0.41256002, z: 0.41256002}
  m_Children: []
  m_Father: {fileID: 78633634}
  m_RootOrder: 7
  m_LocalEulerAnglesHint: {x: 0, y: 0, z: 0}
  m_AnchorMin: {x: 0.5, y: 0.5}
  m_AnchorMax: {x: 0.5, y: 0.5}
  m_AnchoredPosition: {x: 0.000015258789, y: -58.8}
  m_SizeDelta: {x: 514, y: 67}
  m_Pivot: {x: 0.5, y: 0.5}
--- !u!114 &531893376
MonoBehaviour:
  m_ObjectHideFlags: 0
  m_CorrespondingSourceObject: {fileID: 114238223271276444, guid: c62c065cf1b123a48ae2674b1dbc0c74,
    type: 2}
  m_PrefabInternal: {fileID: 1231503986}
  m_GameObject: {fileID: 531893374}
  m_Enabled: 1
  m_EditorHideFlags: 0
  m_Script: {fileID: 708705254, guid: f5f67c52d1564df4a8936ccd202a3bd8, type: 3}
  m_Name: 
  m_EditorClassIdentifier: 
  m_Material: {fileID: 0}
  m_Color: {r: 0.23529413, g: 0.30980393, b: 0.3254902, a: 1}
  m_RaycastTarget: 1
  m_OnCullStateChanged:
    m_PersistentCalls:
      m_Calls: []
    m_TypeName: UnityEngine.UI.MaskableGraphic+CullStateChangedEvent, UnityEngine.UI,
      Version=1.0.0.0, Culture=neutral, PublicKeyToken=null
  m_FontData:
    m_Font: {fileID: 12800000, guid: 0e2f3cc82c877dd498854d3394c3f74d, type: 3}
    m_FontSize: 27
    m_FontStyle: 0
    m_BestFit: 0
    m_MinSize: 10
    m_MaxSize: 66
    m_Alignment: 1
    m_AlignByGeometry: 0
    m_RichText: 1
    m_HorizontalOverflow: 0
    m_VerticalOverflow: 0
    m_LineSpacing: 1
  m_Text: TOTAL SCORE
--- !u!222 &531893377
CanvasRenderer:
  m_ObjectHideFlags: 0
  m_CorrespondingSourceObject: {fileID: 222206780635365292, guid: c62c065cf1b123a48ae2674b1dbc0c74,
    type: 2}
  m_PrefabInternal: {fileID: 1231503986}
  m_GameObject: {fileID: 531893374}
  m_CullTransparentMesh: 0
--- !u!1 &577327613
GameObject:
  m_ObjectHideFlags: 0
  m_CorrespondingSourceObject: {fileID: 1892832520138712, guid: c62c065cf1b123a48ae2674b1dbc0c74,
    type: 2}
  m_PrefabInternal: {fileID: 1231503986}
  serializedVersion: 6
  m_Component:
  - component: {fileID: 577327614}
  - component: {fileID: 577327616}
  - component: {fileID: 577327615}
  m_Layer: 5
  m_Name: Stars_Enabled (1)
  m_TagString: Untagged
  m_Icon: {fileID: 0}
  m_NavMeshLayer: 0
  m_StaticEditorFlags: 0
  m_IsActive: 1
--- !u!224 &577327614
RectTransform:
  m_ObjectHideFlags: 0
  m_CorrespondingSourceObject: {fileID: 224887378426402582, guid: c62c065cf1b123a48ae2674b1dbc0c74,
    type: 2}
  m_PrefabInternal: {fileID: 1231503986}
  m_GameObject: {fileID: 577327613}
  m_LocalRotation: {x: -0, y: -0, z: -0, w: 1}
  m_LocalPosition: {x: 0, y: 0, z: 0}
  m_LocalScale: {x: 0.61702, y: 0.61702, z: 0.61702}
  m_Children: []
  m_Father: {fileID: 78633634}
  m_RootOrder: 5
  m_LocalEulerAnglesHint: {x: 0, y: 0, z: 0}
  m_AnchorMin: {x: 0.5, y: 0.5}
  m_AnchorMax: {x: 0.5, y: 0.5}
  m_AnchoredPosition: {x: 1.3, y: 42.6}
  m_SizeDelta: {x: 100, y: 100}
  m_Pivot: {x: 0.5, y: 0.5}
--- !u!114 &577327615
MonoBehaviour:
  m_ObjectHideFlags: 0
  m_CorrespondingSourceObject: {fileID: 114430968271190374, guid: c62c065cf1b123a48ae2674b1dbc0c74,
    type: 2}
  m_PrefabInternal: {fileID: 1231503986}
  m_GameObject: {fileID: 577327613}
  m_Enabled: 1
  m_EditorHideFlags: 0
  m_Script: {fileID: -765806418, guid: f5f67c52d1564df4a8936ccd202a3bd8, type: 3}
  m_Name: 
  m_EditorClassIdentifier: 
  m_Material: {fileID: 0}
  m_Color: {r: 1, g: 1, b: 1, a: 1}
  m_RaycastTarget: 1
  m_OnCullStateChanged:
    m_PersistentCalls:
      m_Calls: []
    m_TypeName: UnityEngine.UI.MaskableGraphic+CullStateChangedEvent, UnityEngine.UI,
      Version=1.0.0.0, Culture=neutral, PublicKeyToken=null
  m_Sprite: {fileID: 21300000, guid: fa5fb4710577d9f4d928a315ce4aa8ed, type: 3}
  m_Type: 0
  m_PreserveAspect: 0
  m_FillCenter: 1
  m_FillMethod: 4
  m_FillAmount: 1
  m_FillClockwise: 1
  m_FillOrigin: 0
--- !u!222 &577327616
CanvasRenderer:
  m_ObjectHideFlags: 0
  m_CorrespondingSourceObject: {fileID: 222488241844421182, guid: c62c065cf1b123a48ae2674b1dbc0c74,
    type: 2}
  m_PrefabInternal: {fileID: 1231503986}
  m_GameObject: {fileID: 577327613}
  m_CullTransparentMesh: 0
--- !u!1 &587227467
GameObject:
  m_ObjectHideFlags: 0
  m_CorrespondingSourceObject: {fileID: 1353388954538694, guid: c62c065cf1b123a48ae2674b1dbc0c74,
    type: 2}
  m_PrefabInternal: {fileID: 1231503986}
  serializedVersion: 6
  m_Component:
  - component: {fileID: 587227468}
  - component: {fileID: 587227471}
  - component: {fileID: 587227470}
  - component: {fileID: 587227469}
  m_Layer: 5
  m_Name: AddButton_01
  m_TagString: Untagged
  m_Icon: {fileID: 0}
  m_NavMeshLayer: 0
  m_StaticEditorFlags: 0
  m_IsActive: 1
--- !u!224 &587227468
RectTransform:
  m_ObjectHideFlags: 0
  m_CorrespondingSourceObject: {fileID: 224770230004717152, guid: c62c065cf1b123a48ae2674b1dbc0c74,
    type: 2}
  m_PrefabInternal: {fileID: 1231503986}
  m_GameObject: {fileID: 587227467}
  m_LocalRotation: {x: -0, y: -0, z: -0, w: 1}
  m_LocalPosition: {x: 0, y: 0, z: 0}
  m_LocalScale: {x: 0.79135, y: 0.79135, z: 0.79135}
  m_Children:
  - {fileID: 359138311}
  m_Father: {fileID: 1096540061}
  m_RootOrder: 1
  m_LocalEulerAnglesHint: {x: 0, y: 0, z: 0}
  m_AnchorMin: {x: 0.5, y: 0.5}
  m_AnchorMax: {x: 0.5, y: 0.5}
  m_AnchoredPosition: {x: 134.20003, y: 250.49998}
  m_SizeDelta: {x: 20.6, y: 21.9}
  m_Pivot: {x: 0.5, y: 0.5}
--- !u!114 &587227469
MonoBehaviour:
  m_ObjectHideFlags: 0
  m_CorrespondingSourceObject: {fileID: 114681893968729916, guid: c62c065cf1b123a48ae2674b1dbc0c74,
    type: 2}
  m_PrefabInternal: {fileID: 1231503986}
  m_GameObject: {fileID: 587227467}
  m_Enabled: 1
  m_EditorHideFlags: 0
  m_Script: {fileID: 1392445389, guid: f5f67c52d1564df4a8936ccd202a3bd8, type: 3}
  m_Name: 
  m_EditorClassIdentifier: 
  m_Navigation:
    m_Mode: 3
    m_SelectOnUp: {fileID: 0}
    m_SelectOnDown: {fileID: 0}
    m_SelectOnLeft: {fileID: 0}
    m_SelectOnRight: {fileID: 0}
  m_Transition: 1
  m_Colors:
    m_NormalColor: {r: 1, g: 1, b: 1, a: 1}
    m_HighlightedColor: {r: 0.9607843, g: 0.9607843, b: 0.9607843, a: 1}
    m_PressedColor: {r: 0.78431374, g: 0.78431374, b: 0.78431374, a: 1}
    m_DisabledColor: {r: 0.78431374, g: 0.78431374, b: 0.78431374, a: 0.5019608}
    m_ColorMultiplier: 1
    m_FadeDuration: 0.1
  m_SpriteState:
    m_HighlightedSprite: {fileID: 0}
    m_PressedSprite: {fileID: 0}
    m_DisabledSprite: {fileID: 0}
  m_AnimationTriggers:
    m_NormalTrigger: Normal
    m_HighlightedTrigger: Highlighted
    m_PressedTrigger: Pressed
    m_DisabledTrigger: Disabled
  m_Interactable: 1
  m_TargetGraphic: {fileID: 587227470}
  m_OnClick:
    m_PersistentCalls:
      m_Calls: []
    m_TypeName: UnityEngine.UI.Button+ButtonClickedEvent, UnityEngine.UI, Version=1.0.0.0,
      Culture=neutral, PublicKeyToken=null
--- !u!114 &587227470
MonoBehaviour:
  m_ObjectHideFlags: 0
  m_CorrespondingSourceObject: {fileID: 114019377286722968, guid: c62c065cf1b123a48ae2674b1dbc0c74,
    type: 2}
  m_PrefabInternal: {fileID: 1231503986}
  m_GameObject: {fileID: 587227467}
  m_Enabled: 1
  m_EditorHideFlags: 0
  m_Script: {fileID: -765806418, guid: f5f67c52d1564df4a8936ccd202a3bd8, type: 3}
  m_Name: 
  m_EditorClassIdentifier: 
  m_Material: {fileID: 0}
  m_Color: {r: 1, g: 1, b: 1, a: 1}
  m_RaycastTarget: 1
  m_OnCullStateChanged:
    m_PersistentCalls:
      m_Calls: []
    m_TypeName: UnityEngine.UI.MaskableGraphic+CullStateChangedEvent, UnityEngine.UI,
      Version=1.0.0.0, Culture=neutral, PublicKeyToken=null
  m_Sprite: {fileID: 21300000, guid: ac48c5f245565aa46873494d16310ed4, type: 3}
  m_Type: 0
  m_PreserveAspect: 0
  m_FillCenter: 1
  m_FillMethod: 4
  m_FillAmount: 1
  m_FillClockwise: 1
  m_FillOrigin: 0
--- !u!222 &587227471
CanvasRenderer:
  m_ObjectHideFlags: 0
  m_CorrespondingSourceObject: {fileID: 222688299397270782, guid: c62c065cf1b123a48ae2674b1dbc0c74,
    type: 2}
  m_PrefabInternal: {fileID: 1231503986}
  m_GameObject: {fileID: 587227467}
  m_CullTransparentMesh: 0
--- !u!1 &721618243
GameObject:
  m_ObjectHideFlags: 0
  m_CorrespondingSourceObject: {fileID: 1856612376885286, guid: c62c065cf1b123a48ae2674b1dbc0c74,
    type: 2}
  m_PrefabInternal: {fileID: 1231503986}
  serializedVersion: 6
  m_Component:
  - component: {fileID: 721618244}
  - component: {fileID: 721618246}
  - component: {fileID: 721618245}
  m_Layer: 5
  m_Name: Heart
  m_TagString: Untagged
  m_Icon: {fileID: 0}
  m_NavMeshLayer: 0
  m_StaticEditorFlags: 0
  m_IsActive: 1
--- !u!224 &721618244
RectTransform:
  m_ObjectHideFlags: 0
  m_CorrespondingSourceObject: {fileID: 224030422411468778, guid: c62c065cf1b123a48ae2674b1dbc0c74,
    type: 2}
  m_PrefabInternal: {fileID: 1231503986}
  m_GameObject: {fileID: 721618243}
  m_LocalRotation: {x: -0, y: -0, z: -0, w: 1}
  m_LocalPosition: {x: 0, y: 0, z: 0}
  m_LocalScale: {x: 1, y: 1, z: 1}
  m_Children: []
  m_Father: {fileID: 1096540061}
  m_RootOrder: 5
  m_LocalEulerAnglesHint: {x: 0, y: 0, z: 0}
  m_AnchorMin: {x: 0.5, y: 0.5}
  m_AnchorMax: {x: 0.5, y: 0.5}
  m_AnchoredPosition: {x: -118.09998, y: 249.29999}
  m_SizeDelta: {x: 27.8, y: 28}
  m_Pivot: {x: 0.5, y: 0.5}
--- !u!114 &721618245
MonoBehaviour:
  m_ObjectHideFlags: 0
  m_CorrespondingSourceObject: {fileID: 114531546751006368, guid: c62c065cf1b123a48ae2674b1dbc0c74,
    type: 2}
  m_PrefabInternal: {fileID: 1231503986}
  m_GameObject: {fileID: 721618243}
  m_Enabled: 1
  m_EditorHideFlags: 0
  m_Script: {fileID: -765806418, guid: f5f67c52d1564df4a8936ccd202a3bd8, type: 3}
  m_Name: 
  m_EditorClassIdentifier: 
  m_Material: {fileID: 0}
  m_Color: {r: 1, g: 1, b: 1, a: 1}
  m_RaycastTarget: 1
  m_OnCullStateChanged:
    m_PersistentCalls:
      m_Calls: []
    m_TypeName: UnityEngine.UI.MaskableGraphic+CullStateChangedEvent, UnityEngine.UI,
      Version=1.0.0.0, Culture=neutral, PublicKeyToken=null
  m_Sprite: {fileID: 21300000, guid: dad5d423f7e54774b95ffbdef94bd7d6, type: 3}
  m_Type: 0
  m_PreserveAspect: 0
  m_FillCenter: 1
  m_FillMethod: 4
  m_FillAmount: 1
  m_FillClockwise: 1
  m_FillOrigin: 0
--- !u!222 &721618246
CanvasRenderer:
  m_ObjectHideFlags: 0
  m_CorrespondingSourceObject: {fileID: 222228107563525314, guid: c62c065cf1b123a48ae2674b1dbc0c74,
    type: 2}
  m_PrefabInternal: {fileID: 1231503986}
  m_GameObject: {fileID: 721618243}
  m_CullTransparentMesh: 0
--- !u!1 &835776985
GameObject:
  m_ObjectHideFlags: 0
  m_CorrespondingSourceObject: {fileID: 1787939301027758, guid: c62c065cf1b123a48ae2674b1dbc0c74,
    type: 2}
  m_PrefabInternal: {fileID: 1231503986}
  serializedVersion: 6
  m_Component:
  - component: {fileID: 835776986}
  - component: {fileID: 835776988}
  - component: {fileID: 835776987}
  m_Layer: 5
  m_Name: Icon_Cross
  m_TagString: Untagged
  m_Icon: {fileID: 0}
  m_NavMeshLayer: 0
  m_StaticEditorFlags: 0
  m_IsActive: 1
--- !u!224 &835776986
RectTransform:
  m_ObjectHideFlags: 0
  m_CorrespondingSourceObject: {fileID: 224841708415265208, guid: c62c065cf1b123a48ae2674b1dbc0c74,
    type: 2}
  m_PrefabInternal: {fileID: 1231503986}
  m_GameObject: {fileID: 835776985}
  m_LocalRotation: {x: 0, y: 0, z: 0, w: 1}
  m_LocalPosition: {x: 0, y: 0, z: 0}
  m_LocalScale: {x: 0.56171584, y: 0.5617158, z: 0.5617158}
  m_Children: []
  m_Father: {fileID: 22220380}
  m_RootOrder: 0
  m_LocalEulerAnglesHint: {x: 0, y: 0, z: 0}
  m_AnchorMin: {x: 0.5, y: 0.5}
  m_AnchorMax: {x: 0.5, y: 0.5}
  m_AnchoredPosition: {x: -0.000011683, y: 1.2}
  m_SizeDelta: {x: 23.6, y: 24.3}
  m_Pivot: {x: 0.5, y: 0.5}
--- !u!114 &835776987
MonoBehaviour:
  m_ObjectHideFlags: 0
  m_CorrespondingSourceObject: {fileID: 114260992110509318, guid: c62c065cf1b123a48ae2674b1dbc0c74,
    type: 2}
  m_PrefabInternal: {fileID: 1231503986}
  m_GameObject: {fileID: 835776985}
  m_Enabled: 1
  m_EditorHideFlags: 0
  m_Script: {fileID: -765806418, guid: f5f67c52d1564df4a8936ccd202a3bd8, type: 3}
  m_Name: 
  m_EditorClassIdentifier: 
  m_Material: {fileID: 0}
  m_Color: {r: 1, g: 1, b: 1, a: 1}
  m_RaycastTarget: 1
  m_OnCullStateChanged:
    m_PersistentCalls:
      m_Calls: []
    m_TypeName: UnityEngine.UI.MaskableGraphic+CullStateChangedEvent, UnityEngine.UI,
      Version=1.0.0.0, Culture=neutral, PublicKeyToken=null
  m_Sprite: {fileID: 21300000, guid: 18c35ed11480c3542bb9888435500b6b, type: 3}
  m_Type: 0
  m_PreserveAspect: 0
  m_FillCenter: 1
  m_FillMethod: 4
  m_FillAmount: 1
  m_FillClockwise: 1
  m_FillOrigin: 0
--- !u!222 &835776988
CanvasRenderer:
  m_ObjectHideFlags: 0
  m_CorrespondingSourceObject: {fileID: 222423739929115244, guid: c62c065cf1b123a48ae2674b1dbc0c74,
    type: 2}
  m_PrefabInternal: {fileID: 1231503986}
  m_GameObject: {fileID: 835776985}
  m_CullTransparentMesh: 0
--- !u!1 &852048431
GameObject:
  m_ObjectHideFlags: 0
  m_CorrespondingSourceObject: {fileID: 1576349282704662, guid: c62c065cf1b123a48ae2674b1dbc0c74,
    type: 2}
  m_PrefabInternal: {fileID: 1231503986}
  serializedVersion: 6
  m_Component:
  - component: {fileID: 852048432}
  - component: {fileID: 852048434}
  - component: {fileID: 852048433}
  m_Layer: 5
  m_Name: Ammount
  m_TagString: Untagged
  m_Icon: {fileID: 0}
  m_NavMeshLayer: 0
  m_StaticEditorFlags: 0
  m_IsActive: 1
--- !u!224 &852048432
RectTransform:
  m_ObjectHideFlags: 0
  m_CorrespondingSourceObject: {fileID: 224377781547102288, guid: c62c065cf1b123a48ae2674b1dbc0c74,
    type: 2}
  m_PrefabInternal: {fileID: 1231503986}
  m_GameObject: {fileID: 852048431}
  m_LocalRotation: {x: -0, y: -0, z: -0, w: 1}
  m_LocalPosition: {x: 0, y: 0, z: 0}
  m_LocalScale: {x: 1.3399999, y: 1.3399999, z: 1.3399999}
  m_Children: []
  m_Father: {fileID: 1096540061}
  m_RootOrder: 2
  m_LocalEulerAnglesHint: {x: 0, y: 0, z: 0}
  m_AnchorMin: {x: 0.5, y: 0.5}
  m_AnchorMax: {x: 0.5, y: 0.5}
  m_AnchoredPosition: {x: 101.5, y: 249.29999}
  m_SizeDelta: {x: 30.4, y: 8.5}
  m_Pivot: {x: 0.5, y: 0.5}
--- !u!114 &852048433
MonoBehaviour:
  m_ObjectHideFlags: 0
  m_CorrespondingSourceObject: {fileID: 114153064106925720, guid: c62c065cf1b123a48ae2674b1dbc0c74,
    type: 2}
  m_PrefabInternal: {fileID: 1231503986}
  m_GameObject: {fileID: 852048431}
  m_Enabled: 1
  m_EditorHideFlags: 0
  m_Script: {fileID: 708705254, guid: f5f67c52d1564df4a8936ccd202a3bd8, type: 3}
  m_Name: 
  m_EditorClassIdentifier: 
  m_Material: {fileID: 0}
  m_Color: {r: 1, g: 1, b: 1, a: 1}
  m_RaycastTarget: 1
  m_OnCullStateChanged:
    m_PersistentCalls:
      m_Calls: []
    m_TypeName: UnityEngine.UI.MaskableGraphic+CullStateChangedEvent, UnityEngine.UI,
      Version=1.0.0.0, Culture=neutral, PublicKeyToken=null
  m_FontData:
    m_Font: {fileID: 12800000, guid: 0e2f3cc82c877dd498854d3394c3f74d, type: 3}
    m_FontSize: 7
    m_FontStyle: 0
    m_BestFit: 0
    m_MinSize: 0
    m_MaxSize: 40
    m_Alignment: 0
    m_AlignByGeometry: 0
    m_RichText: 1
    m_HorizontalOverflow: 0
    m_VerticalOverflow: 0
    m_LineSpacing: 1
  m_Text: 5,785
--- !u!222 &852048434
CanvasRenderer:
  m_ObjectHideFlags: 0
  m_CorrespondingSourceObject: {fileID: 222106687681499396, guid: c62c065cf1b123a48ae2674b1dbc0c74,
    type: 2}
  m_PrefabInternal: {fileID: 1231503986}
  m_GameObject: {fileID: 852048431}
  m_CullTransparentMesh: 0
--- !u!1 &873882350
GameObject:
  m_ObjectHideFlags: 0
  m_CorrespondingSourceObject: {fileID: 1529362517244768, guid: c62c065cf1b123a48ae2674b1dbc0c74,
    type: 2}
  m_PrefabInternal: {fileID: 1231503986}
  serializedVersion: 6
  m_Component:
  - component: {fileID: 873882351}
  - component: {fileID: 873882353}
  - component: {fileID: 873882352}
  m_Layer: 5
  m_Name: Stars_Disabled
  m_TagString: Untagged
  m_Icon: {fileID: 0}
  m_NavMeshLayer: 0
  m_StaticEditorFlags: 0
  m_IsActive: 1
--- !u!224 &873882351
RectTransform:
  m_ObjectHideFlags: 0
  m_CorrespondingSourceObject: {fileID: 224613927828530536, guid: c62c065cf1b123a48ae2674b1dbc0c74,
    type: 2}
  m_PrefabInternal: {fileID: 1231503986}
  m_GameObject: {fileID: 873882350}
  m_LocalRotation: {x: -0, y: -0, z: -0, w: 1}
  m_LocalPosition: {x: 0, y: 0, z: 0}
  m_LocalScale: {x: 0.61702, y: 0.61702, z: 0.61702}
  m_Children: []
  m_Father: {fileID: 78633634}
  m_RootOrder: 6
  m_LocalEulerAnglesHint: {x: 0, y: 0, z: 0}
  m_AnchorMin: {x: 0.5, y: 0.5}
  m_AnchorMax: {x: 0.5, y: 0.5}
  m_AnchoredPosition: {x: 73, y: 2.5}
  m_SizeDelta: {x: 100, y: 100}
  m_Pivot: {x: 0.5, y: 0.5}
--- !u!114 &873882352
MonoBehaviour:
  m_ObjectHideFlags: 0
  m_CorrespondingSourceObject: {fileID: 114577499039213488, guid: c62c065cf1b123a48ae2674b1dbc0c74,
    type: 2}
  m_PrefabInternal: {fileID: 1231503986}
  m_GameObject: {fileID: 873882350}
  m_Enabled: 1
  m_EditorHideFlags: 0
  m_Script: {fileID: -765806418, guid: f5f67c52d1564df4a8936ccd202a3bd8, type: 3}
  m_Name: 
  m_EditorClassIdentifier: 
  m_Material: {fileID: 0}
  m_Color: {r: 1, g: 1, b: 1, a: 1}
  m_RaycastTarget: 1
  m_OnCullStateChanged:
    m_PersistentCalls:
      m_Calls: []
    m_TypeName: UnityEngine.UI.MaskableGraphic+CullStateChangedEvent, UnityEngine.UI,
      Version=1.0.0.0, Culture=neutral, PublicKeyToken=null
  m_Sprite: {fileID: 21300000, guid: d454469c10d4c93418f9d9d0e2189917, type: 3}
  m_Type: 0
  m_PreserveAspect: 0
  m_FillCenter: 1
  m_FillMethod: 4
  m_FillAmount: 1
  m_FillClockwise: 1
  m_FillOrigin: 0
--- !u!222 &873882353
CanvasRenderer:
  m_ObjectHideFlags: 0
  m_CorrespondingSourceObject: {fileID: 222102166360763568, guid: c62c065cf1b123a48ae2674b1dbc0c74,
    type: 2}
  m_PrefabInternal: {fileID: 1231503986}
  m_GameObject: {fileID: 873882350}
  m_CullTransparentMesh: 0
--- !u!1 &879532671
GameObject:
  m_ObjectHideFlags: 0
  m_CorrespondingSourceObject: {fileID: 1411019300054592, guid: c62c065cf1b123a48ae2674b1dbc0c74,
    type: 2}
  m_PrefabInternal: {fileID: 1231503986}
  serializedVersion: 6
  m_Component:
  - component: {fileID: 879532672}
  - component: {fileID: 879532674}
  - component: {fileID: 879532673}
  m_Layer: 5
  m_Name: Background
  m_TagString: Untagged
  m_Icon: {fileID: 0}
  m_NavMeshLayer: 0
  m_StaticEditorFlags: 0
  m_IsActive: 1
--- !u!224 &879532672
RectTransform:
  m_ObjectHideFlags: 0
  m_CorrespondingSourceObject: {fileID: 224457890060881740, guid: c62c065cf1b123a48ae2674b1dbc0c74,
    type: 2}
  m_PrefabInternal: {fileID: 1231503986}
  m_GameObject: {fileID: 879532671}
  m_LocalRotation: {x: 0, y: 0, z: 0, w: 1}
  m_LocalPosition: {x: 0, y: 0, z: 0}
  m_LocalScale: {x: 1, y: 1, z: 1}
  m_Children: []
  m_Father: {fileID: 78633634}
  m_RootOrder: 0
  m_LocalEulerAnglesHint: {x: 0, y: 0, z: 0}
  m_AnchorMin: {x: 0.5, y: 0.5}
  m_AnchorMax: {x: 0.5, y: 0.5}
  m_AnchoredPosition: {x: 0, y: 0}
  m_SizeDelta: {x: 311, y: 554}
  m_Pivot: {x: 0.5, y: 0.5}
--- !u!114 &879532673
MonoBehaviour:
  m_ObjectHideFlags: 0
  m_CorrespondingSourceObject: {fileID: 114904756304910032, guid: c62c065cf1b123a48ae2674b1dbc0c74,
    type: 2}
  m_PrefabInternal: {fileID: 1231503986}
  m_GameObject: {fileID: 879532671}
  m_Enabled: 1
  m_EditorHideFlags: 0
  m_Script: {fileID: -765806418, guid: f5f67c52d1564df4a8936ccd202a3bd8, type: 3}
  m_Name: 
  m_EditorClassIdentifier: 
  m_Material: {fileID: 0}
  m_Color: {r: 0.007843138, g: 0.1137255, b: 0.14117648, a: 1}
  m_RaycastTarget: 1
  m_OnCullStateChanged:
    m_PersistentCalls:
      m_Calls: []
    m_TypeName: UnityEngine.UI.MaskableGraphic+CullStateChangedEvent, UnityEngine.UI,
      Version=1.0.0.0, Culture=neutral, PublicKeyToken=null
  m_Sprite: {fileID: 0}
  m_Type: 0
  m_PreserveAspect: 0
  m_FillCenter: 1
  m_FillMethod: 4
  m_FillAmount: 1
  m_FillClockwise: 1
  m_FillOrigin: 0
--- !u!222 &879532674
CanvasRenderer:
  m_ObjectHideFlags: 0
  m_CorrespondingSourceObject: {fileID: 222559096910986142, guid: c62c065cf1b123a48ae2674b1dbc0c74,
    type: 2}
  m_PrefabInternal: {fileID: 1231503986}
  m_GameObject: {fileID: 879532671}
  m_CullTransparentMesh: 0
--- !u!1 &888496456
GameObject:
  m_ObjectHideFlags: 0
  m_CorrespondingSourceObject: {fileID: 1567084121743224, guid: d5148bd8673e1b3448cf42b26f4fd8ad,
    type: 2}
  m_PrefabInternal: {fileID: 154609813}
  serializedVersion: 6
  m_Component:
  - component: {fileID: 888496459}
  - component: {fileID: 888496458}
  - component: {fileID: 888496457}
  m_Layer: 0
  m_Name: EventSystem
  m_TagString: Untagged
  m_Icon: {fileID: 0}
  m_NavMeshLayer: 0
  m_StaticEditorFlags: 0
  m_IsActive: 1
--- !u!114 &888496457
MonoBehaviour:
  m_ObjectHideFlags: 0
  m_CorrespondingSourceObject: {fileID: 114980078365977266, guid: d5148bd8673e1b3448cf42b26f4fd8ad,
    type: 2}
  m_PrefabInternal: {fileID: 154609813}
  m_GameObject: {fileID: 888496456}
  m_Enabled: 1
  m_EditorHideFlags: 0
  m_Script: {fileID: 1077351063, guid: f5f67c52d1564df4a8936ccd202a3bd8, type: 3}
  m_Name: 
  m_EditorClassIdentifier: 
  m_HorizontalAxis: Horizontal
  m_VerticalAxis: Vertical
  m_SubmitButton: Submit
  m_CancelButton: Cancel
  m_InputActionsPerSecond: 10
  m_RepeatDelay: 0.5
  m_ForceModuleActive: 0
--- !u!114 &888496458
MonoBehaviour:
  m_ObjectHideFlags: 0
  m_CorrespondingSourceObject: {fileID: 114173700237277712, guid: d5148bd8673e1b3448cf42b26f4fd8ad,
    type: 2}
  m_PrefabInternal: {fileID: 154609813}
  m_GameObject: {fileID: 888496456}
  m_Enabled: 1
  m_EditorHideFlags: 0
  m_Script: {fileID: -619905303, guid: f5f67c52d1564df4a8936ccd202a3bd8, type: 3}
  m_Name: 
  m_EditorClassIdentifier: 
  m_FirstSelected: {fileID: 0}
  m_sendNavigationEvents: 1
  m_DragThreshold: 5
--- !u!4 &888496459
Transform:
  m_ObjectHideFlags: 0
  m_CorrespondingSourceObject: {fileID: 4159094325320154, guid: d5148bd8673e1b3448cf42b26f4fd8ad,
    type: 2}
  m_PrefabInternal: {fileID: 154609813}
  m_GameObject: {fileID: 888496456}
  m_LocalRotation: {x: 0, y: 0, z: 0, w: 1}
  m_LocalPosition: {x: 0, y: 0, z: 0}
  m_LocalScale: {x: 1, y: 1, z: 1}
  m_Children: []
  m_Father: {fileID: 0}
  m_RootOrder: 2
  m_LocalEulerAnglesHint: {x: 0, y: 0, z: 0}
--- !u!1 &912312930
GameObject:
  m_ObjectHideFlags: 0
  m_CorrespondingSourceObject: {fileID: 1148518042553456, guid: c62c065cf1b123a48ae2674b1dbc0c74,
    type: 2}
  m_PrefabInternal: {fileID: 1231503986}
  serializedVersion: 6
  m_Component:
  - component: {fileID: 912312931}
  - component: {fileID: 912312933}
  - component: {fileID: 912312932}
  m_Layer: 5
  m_Name: Header
  m_TagString: Untagged
  m_Icon: {fileID: 0}
  m_NavMeshLayer: 0
  m_StaticEditorFlags: 0
  m_IsActive: 1
--- !u!224 &912312931
RectTransform:
  m_ObjectHideFlags: 0
  m_CorrespondingSourceObject: {fileID: 224718515777993818, guid: c62c065cf1b123a48ae2674b1dbc0c74,
    type: 2}
  m_PrefabInternal: {fileID: 1231503986}
  m_GameObject: {fileID: 912312930}
  m_LocalRotation: {x: 0, y: 0, z: 0, w: 1}
  m_LocalPosition: {x: 0, y: 0, z: 0}
  m_LocalScale: {x: 0.41255754, y: 0.4125577, z: 0.4125577}
  m_Children:
  - {fileID: 1439476483}
  - {fileID: 1027793903}
  m_Father: {fileID: 78633634}
  m_RootOrder: 3
  m_LocalEulerAnglesHint: {x: 0, y: 0, z: 0}
  m_AnchorMin: {x: 0.5, y: 0.5}
  m_AnchorMax: {x: 0.5, y: 0.5}
  m_AnchoredPosition: {x: 0, y: 114.5}
  m_SizeDelta: {x: 689, y: 132}
  m_Pivot: {x: 0.5, y: 0.5}
--- !u!114 &912312932
MonoBehaviour:
  m_ObjectHideFlags: 0
  m_CorrespondingSourceObject: {fileID: 114586859973789348, guid: c62c065cf1b123a48ae2674b1dbc0c74,
    type: 2}
  m_PrefabInternal: {fileID: 1231503986}
  m_GameObject: {fileID: 912312930}
  m_Enabled: 1
  m_EditorHideFlags: 0
  m_Script: {fileID: -765806418, guid: f5f67c52d1564df4a8936ccd202a3bd8, type: 3}
  m_Name: 
  m_EditorClassIdentifier: 
  m_Material: {fileID: 0}
  m_Color: {r: 0.97647065, g: 0.23529413, b: 0.32156864, a: 1}
  m_RaycastTarget: 1
  m_OnCullStateChanged:
    m_PersistentCalls:
      m_Calls: []
    m_TypeName: UnityEngine.UI.MaskableGraphic+CullStateChangedEvent, UnityEngine.UI,
      Version=1.0.0.0, Culture=neutral, PublicKeyToken=null
  m_Sprite: {fileID: 21300000, guid: 0eef525b6732b4747ac8b5bc47db2905, type: 3}
  m_Type: 0
  m_PreserveAspect: 0
  m_FillCenter: 1
  m_FillMethod: 4
  m_FillAmount: 1
  m_FillClockwise: 1
  m_FillOrigin: 0
--- !u!222 &912312933
CanvasRenderer:
  m_ObjectHideFlags: 0
  m_CorrespondingSourceObject: {fileID: 222619702255437582, guid: c62c065cf1b123a48ae2674b1dbc0c74,
    type: 2}
  m_PrefabInternal: {fileID: 1231503986}
  m_GameObject: {fileID: 912312930}
  m_CullTransparentMesh: 0
--- !u!1 &985174694
GameObject:
  m_ObjectHideFlags: 0
  m_CorrespondingSourceObject: {fileID: 1883031453123348, guid: c62c065cf1b123a48ae2674b1dbc0c74,
    type: 2}
  m_PrefabInternal: {fileID: 1231503986}
  serializedVersion: 6
  m_Component:
  - component: {fileID: 985174695}
  - component: {fileID: 985174697}
  - component: {fileID: 985174696}
  m_Layer: 5
  m_Name: Coin
  m_TagString: Untagged
  m_Icon: {fileID: 0}
  m_NavMeshLayer: 0
  m_StaticEditorFlags: 0
  m_IsActive: 1
--- !u!224 &985174695
RectTransform:
  m_ObjectHideFlags: 0
  m_CorrespondingSourceObject: {fileID: 224253857393992212, guid: c62c065cf1b123a48ae2674b1dbc0c74,
    type: 2}
  m_PrefabInternal: {fileID: 1231503986}
  m_GameObject: {fileID: 985174694}
  m_LocalRotation: {x: -0, y: -0, z: -0, w: 1}
  m_LocalPosition: {x: 0, y: 0, z: 0}
  m_LocalScale: {x: 1, y: 1, z: 1}
  m_Children: []
  m_Father: {fileID: 1096540061}
  m_RootOrder: 0
  m_LocalEulerAnglesHint: {x: 0, y: 0, z: 0}
  m_AnchorMin: {x: 0.5, y: 0.5}
  m_AnchorMax: {x: 0.5, y: 0.5}
  m_AnchoredPosition: {x: 60.8, y: 249.3}
  m_SizeDelta: {x: 27.8, y: 28}
  m_Pivot: {x: 0.5, y: 0.5}
--- !u!114 &985174696
MonoBehaviour:
  m_ObjectHideFlags: 0
  m_CorrespondingSourceObject: {fileID: 114616392954343204, guid: c62c065cf1b123a48ae2674b1dbc0c74,
    type: 2}
  m_PrefabInternal: {fileID: 1231503986}
  m_GameObject: {fileID: 985174694}
  m_Enabled: 1
  m_EditorHideFlags: 0
  m_Script: {fileID: -765806418, guid: f5f67c52d1564df4a8936ccd202a3bd8, type: 3}
  m_Name: 
  m_EditorClassIdentifier: 
  m_Material: {fileID: 0}
  m_Color: {r: 1, g: 1, b: 1, a: 1}
  m_RaycastTarget: 1
  m_OnCullStateChanged:
    m_PersistentCalls:
      m_Calls: []
    m_TypeName: UnityEngine.UI.MaskableGraphic+CullStateChangedEvent, UnityEngine.UI,
      Version=1.0.0.0, Culture=neutral, PublicKeyToken=null
  m_Sprite: {fileID: 21300000, guid: a4c1b4b322f81284caa8208b29fd03d5, type: 3}
  m_Type: 0
  m_PreserveAspect: 0
  m_FillCenter: 1
  m_FillMethod: 4
  m_FillAmount: 1
  m_FillClockwise: 1
  m_FillOrigin: 0
--- !u!222 &985174697
CanvasRenderer:
  m_ObjectHideFlags: 0
  m_CorrespondingSourceObject: {fileID: 222337124213243922, guid: c62c065cf1b123a48ae2674b1dbc0c74,
    type: 2}
  m_PrefabInternal: {fileID: 1231503986}
  m_GameObject: {fileID: 985174694}
  m_CullTransparentMesh: 0
--- !u!1 &985986890
GameObject:
  m_ObjectHideFlags: 0
  m_CorrespondingSourceObject: {fileID: 1270618921912046, guid: c62c065cf1b123a48ae2674b1dbc0c74,
    type: 2}
  m_PrefabInternal: {fileID: 1231503986}
  serializedVersion: 6
  m_Component:
  - component: {fileID: 985986891}
  - component: {fileID: 985986893}
  - component: {fileID: 985986892}
  m_Layer: 5
  m_Name: Cross
  m_TagString: Untagged
  m_Icon: {fileID: 0}
  m_NavMeshLayer: 0
  m_StaticEditorFlags: 0
  m_IsActive: 1
--- !u!224 &985986891
RectTransform:
  m_ObjectHideFlags: 0
  m_CorrespondingSourceObject: {fileID: 224401182466726262, guid: c62c065cf1b123a48ae2674b1dbc0c74,
    type: 2}
  m_PrefabInternal: {fileID: 1231503986}
  m_GameObject: {fileID: 985986890}
  m_LocalRotation: {x: 0, y: 0, z: 0, w: 1}
  m_LocalPosition: {x: 0, y: 0, z: 0}
  m_LocalScale: {x: 0.20801824, y: 0.20801821, z: 0.20801821}
  m_Children: []
  m_Father: {fileID: 1027793903}
  m_RootOrder: 0
  m_LocalEulerAnglesHint: {x: 0, y: 0, z: 0}
  m_AnchorMin: {x: 0.5, y: 0.5}
  m_AnchorMax: {x: 0.5, y: 0.5}
  m_AnchoredPosition: {x: -0.000069372, y: 0}
  m_SizeDelta: {x: 100, y: 100}
  m_Pivot: {x: 0.5, y: 0.5}
--- !u!114 &985986892
MonoBehaviour:
  m_ObjectHideFlags: 0
  m_CorrespondingSourceObject: {fileID: 114442410567846186, guid: c62c065cf1b123a48ae2674b1dbc0c74,
    type: 2}
  m_PrefabInternal: {fileID: 1231503986}
  m_GameObject: {fileID: 985986890}
  m_Enabled: 1
  m_EditorHideFlags: 0
  m_Script: {fileID: -765806418, guid: f5f67c52d1564df4a8936ccd202a3bd8, type: 3}
  m_Name: 
  m_EditorClassIdentifier: 
  m_Material: {fileID: 0}
  m_Color: {r: 1, g: 1, b: 1, a: 1}
  m_RaycastTarget: 1
  m_OnCullStateChanged:
    m_PersistentCalls:
      m_Calls: []
    m_TypeName: UnityEngine.UI.MaskableGraphic+CullStateChangedEvent, UnityEngine.UI,
      Version=1.0.0.0, Culture=neutral, PublicKeyToken=null
  m_Sprite: {fileID: 21300000, guid: 42b1195efe03d314c820577908fe6c7b, type: 3}
  m_Type: 0
  m_PreserveAspect: 0
  m_FillCenter: 1
  m_FillMethod: 4
  m_FillAmount: 1
  m_FillClockwise: 1
  m_FillOrigin: 0
--- !u!222 &985986893
CanvasRenderer:
  m_ObjectHideFlags: 0
  m_CorrespondingSourceObject: {fileID: 222017750880644752, guid: c62c065cf1b123a48ae2674b1dbc0c74,
    type: 2}
  m_PrefabInternal: {fileID: 1231503986}
  m_GameObject: {fileID: 985986890}
  m_CullTransparentMesh: 0
--- !u!1 &1027793902
GameObject:
  m_ObjectHideFlags: 0
  m_CorrespondingSourceObject: {fileID: 1689832428228882, guid: c62c065cf1b123a48ae2674b1dbc0c74,
    type: 2}
  m_PrefabInternal: {fileID: 1231503986}
  serializedVersion: 6
  m_Component:
  - component: {fileID: 1027793903}
  - component: {fileID: 1027793906}
  - component: {fileID: 1027793905}
  - component: {fileID: 1027793904}
  m_Layer: 5
  m_Name: Exit
  m_TagString: Untagged
  m_Icon: {fileID: 0}
  m_NavMeshLayer: 0
  m_StaticEditorFlags: 0
  m_IsActive: 1
--- !u!224 &1027793903
RectTransform:
  m_ObjectHideFlags: 0
  m_CorrespondingSourceObject: {fileID: 224770567907139894, guid: c62c065cf1b123a48ae2674b1dbc0c74,
    type: 2}
  m_PrefabInternal: {fileID: 1231503986}
  m_GameObject: {fileID: 1027793902}
  m_LocalRotation: {x: -0, y: -0, z: -0, w: 1}
  m_LocalPosition: {x: 0, y: 0, z: 0}
  m_LocalScale: {x: 1.0662988, y: 1.0662982, z: 1.0662982}
  m_Children:
  - {fileID: 985986891}
  m_Father: {fileID: 912312931}
  m_RootOrder: 1
  m_LocalEulerAnglesHint: {x: 0, y: 0, z: 0}
  m_AnchorMin: {x: 0.5, y: 0.5}
  m_AnchorMax: {x: 0.5, y: 0.5}
  m_AnchoredPosition: {x: 285.5, y: 3.8000488}
  m_SizeDelta: {x: 46, y: 48}
  m_Pivot: {x: 0.5, y: 0.5}
--- !u!114 &1027793904
MonoBehaviour:
  m_ObjectHideFlags: 0
  m_CorrespondingSourceObject: {fileID: 114298581256049040, guid: c62c065cf1b123a48ae2674b1dbc0c74,
    type: 2}
  m_PrefabInternal: {fileID: 1231503986}
  m_GameObject: {fileID: 1027793902}
  m_Enabled: 1
  m_EditorHideFlags: 0
  m_Script: {fileID: 1392445389, guid: f5f67c52d1564df4a8936ccd202a3bd8, type: 3}
  m_Name: 
  m_EditorClassIdentifier: 
  m_Navigation:
    m_Mode: 3
    m_SelectOnUp: {fileID: 0}
    m_SelectOnDown: {fileID: 0}
    m_SelectOnLeft: {fileID: 0}
    m_SelectOnRight: {fileID: 0}
  m_Transition: 1
  m_Colors:
    m_NormalColor: {r: 1, g: 1, b: 1, a: 1}
    m_HighlightedColor: {r: 0.9607843, g: 0.9607843, b: 0.9607843, a: 1}
    m_PressedColor: {r: 0.78431374, g: 0.78431374, b: 0.78431374, a: 1}
    m_DisabledColor: {r: 0.78431374, g: 0.78431374, b: 0.78431374, a: 0.5019608}
    m_ColorMultiplier: 1
    m_FadeDuration: 0.1
  m_SpriteState:
    m_HighlightedSprite: {fileID: 0}
    m_PressedSprite: {fileID: 0}
    m_DisabledSprite: {fileID: 0}
  m_AnimationTriggers:
    m_NormalTrigger: Normal
    m_HighlightedTrigger: Highlighted
    m_PressedTrigger: Pressed
    m_DisabledTrigger: Disabled
  m_Interactable: 1
  m_TargetGraphic: {fileID: 1027793905}
  m_OnClick:
    m_PersistentCalls:
      m_Calls: []
    m_TypeName: UnityEngine.UI.Button+ButtonClickedEvent, UnityEngine.UI, Version=1.0.0.0,
      Culture=neutral, PublicKeyToken=null
--- !u!114 &1027793905
MonoBehaviour:
  m_ObjectHideFlags: 0
  m_CorrespondingSourceObject: {fileID: 114024497076965020, guid: c62c065cf1b123a48ae2674b1dbc0c74,
    type: 2}
  m_PrefabInternal: {fileID: 1231503986}
  m_GameObject: {fileID: 1027793902}
  m_Enabled: 1
  m_EditorHideFlags: 0
  m_Script: {fileID: -765806418, guid: f5f67c52d1564df4a8936ccd202a3bd8, type: 3}
  m_Name: 
  m_EditorClassIdentifier: 
  m_Material: {fileID: 0}
  m_Color: {r: 1, g: 1, b: 1, a: 1}
  m_RaycastTarget: 1
  m_OnCullStateChanged:
    m_PersistentCalls:
      m_Calls: []
    m_TypeName: UnityEngine.UI.MaskableGraphic+CullStateChangedEvent, UnityEngine.UI,
      Version=1.0.0.0, Culture=neutral, PublicKeyToken=null
  m_Sprite: {fileID: 21300000, guid: 5486e1a7c0b33034f842983df7de227c, type: 3}
  m_Type: 0
  m_PreserveAspect: 0
  m_FillCenter: 1
  m_FillMethod: 4
  m_FillAmount: 1
  m_FillClockwise: 1
  m_FillOrigin: 0
--- !u!222 &1027793906
CanvasRenderer:
  m_ObjectHideFlags: 0
  m_CorrespondingSourceObject: {fileID: 222399674544217372, guid: c62c065cf1b123a48ae2674b1dbc0c74,
    type: 2}
  m_PrefabInternal: {fileID: 1231503986}
  m_GameObject: {fileID: 1027793902}
  m_CullTransparentMesh: 0
--- !u!1 &1049981111
GameObject:
  m_ObjectHideFlags: 0
  m_CorrespondingSourceObject: {fileID: 0}
  m_PrefabInternal: {fileID: 0}
  serializedVersion: 6
  m_Component:
  - component: {fileID: 1049981115}
  - component: {fileID: 1049981114}
  - component: {fileID: 1049981113}
  - component: {fileID: 1049981112}
  m_Layer: 0
  m_Name: Main Camera
  m_TagString: MainCamera
  m_Icon: {fileID: 0}
  m_NavMeshLayer: 0
  m_StaticEditorFlags: 0
  m_IsActive: 1
--- !u!81 &1049981112
AudioListener:
  m_ObjectHideFlags: 0
  m_CorrespondingSourceObject: {fileID: 0}
  m_PrefabInternal: {fileID: 0}
  m_GameObject: {fileID: 1049981111}
  m_Enabled: 1
--- !u!124 &1049981113
Behaviour:
  m_ObjectHideFlags: 0
  m_CorrespondingSourceObject: {fileID: 0}
  m_PrefabInternal: {fileID: 0}
  m_GameObject: {fileID: 1049981111}
  m_Enabled: 1
--- !u!20 &1049981114
Camera:
  m_ObjectHideFlags: 0
  m_CorrespondingSourceObject: {fileID: 0}
  m_PrefabInternal: {fileID: 0}
  m_GameObject: {fileID: 1049981111}
  m_Enabled: 1
  serializedVersion: 2
  m_ClearFlags: 1
  m_BackGroundColor: {r: 0.19215687, g: 0.3019608, b: 0.4745098, a: 0}
  m_projectionMatrixMode: 1
  m_SensorSize: {x: 36, y: 24}
  m_LensShift: {x: 0, y: 0}
  m_FocalLength: 50
  m_NormalizedViewPortRect:
    serializedVersion: 2
    x: 0
    y: 0
    width: 1
    height: 1
  near clip plane: 0.3
  far clip plane: 1000
  field of view: 60
  orthographic: 0
  orthographic size: 5
  m_Depth: -1
  m_CullingMask:
    serializedVersion: 2
    m_Bits: 4294967295
  m_RenderingPath: -1
  m_TargetTexture: {fileID: 0}
  m_TargetDisplay: 0
  m_TargetEye: 3
  m_HDR: 1
  m_AllowMSAA: 1
  m_AllowDynamicResolution: 0
  m_ForceIntoRT: 0
  m_OcclusionCulling: 1
  m_StereoConvergence: 10
  m_StereoSeparation: 0.022
--- !u!4 &1049981115
Transform:
  m_ObjectHideFlags: 0
  m_CorrespondingSourceObject: {fileID: 0}
  m_PrefabInternal: {fileID: 0}
  m_GameObject: {fileID: 1049981111}
  m_LocalRotation: {x: 0, y: 0, z: 0, w: 1}
  m_LocalPosition: {x: 0, y: 1, z: -10}
  m_LocalScale: {x: 1, y: 1, z: 1}
  m_Children: []
  m_Father: {fileID: 0}
  m_RootOrder: 1
  m_LocalEulerAnglesHint: {x: 0, y: 0, z: 0}
--- !u!1 &1096540060
GameObject:
  m_ObjectHideFlags: 0
  m_CorrespondingSourceObject: {fileID: 1030761945532166, guid: c62c065cf1b123a48ae2674b1dbc0c74,
    type: 2}
  m_PrefabInternal: {fileID: 1231503986}
  serializedVersion: 6
  m_Component:
  - component: {fileID: 1096540061}
  m_Layer: 5
  m_Name: Header
  m_TagString: Untagged
  m_Icon: {fileID: 0}
  m_NavMeshLayer: 0
  m_StaticEditorFlags: 0
  m_IsActive: 1
--- !u!224 &1096540061
RectTransform:
  m_ObjectHideFlags: 0
  m_CorrespondingSourceObject: {fileID: 224456953890312296, guid: c62c065cf1b123a48ae2674b1dbc0c74,
    type: 2}
  m_PrefabInternal: {fileID: 1231503986}
  m_GameObject: {fileID: 1096540060}
  m_LocalRotation: {x: 0, y: 0, z: 0, w: 1}
  m_LocalPosition: {x: 0, y: 0, z: 0}
  m_LocalScale: {x: 1, y: 1, z: 1}
  m_Children:
  - {fileID: 985174695}
  - {fileID: 587227468}
  - {fileID: 852048432}
  - {fileID: 22220380}
  - {fileID: 32824927}
  - {fileID: 721618244}
  m_Father: {fileID: 78633634}
  m_RootOrder: 2
  m_LocalEulerAnglesHint: {x: 0, y: 0, z: 0}
  m_AnchorMin: {x: 0.5, y: 0.5}
  m_AnchorMax: {x: 0.5, y: 0.5}
  m_AnchoredPosition: {x: 0, y: -7.9}
  m_SizeDelta: {x: 100, y: 100}
  m_Pivot: {x: 0.5, y: 0.5}
--- !u!1 &1163625757
GameObject:
  m_ObjectHideFlags: 0
  m_CorrespondingSourceObject: {fileID: 1678373656562694, guid: c62c065cf1b123a48ae2674b1dbc0c74,
    type: 2}
  m_PrefabInternal: {fileID: 1231503986}
  serializedVersion: 6
  m_Component:
  - component: {fileID: 1163625758}
  - component: {fileID: 1163625760}
  - component: {fileID: 1163625759}
  m_Layer: 5
  m_Name: Ico_Menu
  m_TagString: Untagged
  m_Icon: {fileID: 0}
  m_NavMeshLayer: 0
  m_StaticEditorFlags: 0
  m_IsActive: 1
--- !u!224 &1163625758
RectTransform:
  m_ObjectHideFlags: 0
  m_CorrespondingSourceObject: {fileID: 224570889374416568, guid: c62c065cf1b123a48ae2674b1dbc0c74,
    type: 2}
  m_PrefabInternal: {fileID: 1231503986}
  m_GameObject: {fileID: 1163625757}
  m_LocalRotation: {x: 0, y: 0, z: 0, w: 1}
  m_LocalPosition: {x: 0, y: 0, z: 0}
  m_LocalScale: {x: 1.9806461, y: 1.9806471, z: 1.9806471}
  m_Children: []
  m_Father: {fileID: 413301244}
  m_RootOrder: 0
  m_LocalEulerAnglesHint: {x: 0, y: 0, z: 0}
  m_AnchorMin: {x: 0.5, y: 0.5}
  m_AnchorMax: {x: 0.5, y: 0.5}
  m_AnchoredPosition: {x: 0, y: 5}
  m_SizeDelta: {x: 28, y: 15}
  m_Pivot: {x: 0.5, y: 0.5}
--- !u!114 &1163625759
MonoBehaviour:
  m_ObjectHideFlags: 0
  m_CorrespondingSourceObject: {fileID: 114276992458297102, guid: c62c065cf1b123a48ae2674b1dbc0c74,
    type: 2}
  m_PrefabInternal: {fileID: 1231503986}
  m_GameObject: {fileID: 1163625757}
  m_Enabled: 1
  m_EditorHideFlags: 0
  m_Script: {fileID: -765806418, guid: f5f67c52d1564df4a8936ccd202a3bd8, type: 3}
  m_Name: 
  m_EditorClassIdentifier: 
  m_Material: {fileID: 0}
  m_Color: {r: 1, g: 1, b: 1, a: 1}
  m_RaycastTarget: 1
  m_OnCullStateChanged:
    m_PersistentCalls:
      m_Calls: []
    m_TypeName: UnityEngine.UI.MaskableGraphic+CullStateChangedEvent, UnityEngine.UI,
      Version=1.0.0.0, Culture=neutral, PublicKeyToken=null
  m_Sprite: {fileID: 21300000, guid: 60591ffb3772f174bb7e221543ba6d68, type: 3}
  m_Type: 0
  m_PreserveAspect: 0
  m_FillCenter: 1
  m_FillMethod: 4
  m_FillAmount: 1
  m_FillClockwise: 1
  m_FillOrigin: 0
--- !u!222 &1163625760
CanvasRenderer:
  m_ObjectHideFlags: 0
  m_CorrespondingSourceObject: {fileID: 222733580302399786, guid: c62c065cf1b123a48ae2674b1dbc0c74,
    type: 2}
  m_PrefabInternal: {fileID: 1231503986}
  m_GameObject: {fileID: 1163625757}
  m_CullTransparentMesh: 0
--- !u!1001 &1231503986
Prefab:
  m_ObjectHideFlags: 0
  serializedVersion: 2
  m_Modification:
    m_TransformParent: {fileID: 0}
    m_Modifications:
    - target: {fileID: 224212230736072028, guid: c62c065cf1b123a48ae2674b1dbc0c74,
        type: 2}
      propertyPath: m_LocalPosition.x
      value: 0
      objectReference: {fileID: 0}
    - target: {fileID: 224212230736072028, guid: c62c065cf1b123a48ae2674b1dbc0c74,
        type: 2}
      propertyPath: m_LocalPosition.y
      value: 0
      objectReference: {fileID: 0}
    - target: {fileID: 224212230736072028, guid: c62c065cf1b123a48ae2674b1dbc0c74,
        type: 2}
      propertyPath: m_LocalPosition.z
      value: 0
      objectReference: {fileID: 0}
    - target: {fileID: 224212230736072028, guid: c62c065cf1b123a48ae2674b1dbc0c74,
        type: 2}
      propertyPath: m_LocalRotation.x
      value: 0
      objectReference: {fileID: 0}
    - target: {fileID: 224212230736072028, guid: c62c065cf1b123a48ae2674b1dbc0c74,
        type: 2}
      propertyPath: m_LocalRotation.y
      value: 0
      objectReference: {fileID: 0}
    - target: {fileID: 224212230736072028, guid: c62c065cf1b123a48ae2674b1dbc0c74,
        type: 2}
      propertyPath: m_LocalRotation.z
      value: 0
      objectReference: {fileID: 0}
    - target: {fileID: 224212230736072028, guid: c62c065cf1b123a48ae2674b1dbc0c74,
        type: 2}
      propertyPath: m_LocalRotation.w
      value: 1
      objectReference: {fileID: 0}
    - target: {fileID: 224212230736072028, guid: c62c065cf1b123a48ae2674b1dbc0c74,
        type: 2}
      propertyPath: m_RootOrder
      value: 0
      objectReference: {fileID: 0}
    - target: {fileID: 224212230736072028, guid: c62c065cf1b123a48ae2674b1dbc0c74,
        type: 2}
      propertyPath: m_AnchoredPosition.x
      value: 0
      objectReference: {fileID: 0}
    - target: {fileID: 224212230736072028, guid: c62c065cf1b123a48ae2674b1dbc0c74,
        type: 2}
      propertyPath: m_AnchoredPosition.y
      value: 0
      objectReference: {fileID: 0}
    - target: {fileID: 224212230736072028, guid: c62c065cf1b123a48ae2674b1dbc0c74,
        type: 2}
      propertyPath: m_SizeDelta.x
      value: 0
      objectReference: {fileID: 0}
    - target: {fileID: 224212230736072028, guid: c62c065cf1b123a48ae2674b1dbc0c74,
        type: 2}
      propertyPath: m_SizeDelta.y
      value: 0
      objectReference: {fileID: 0}
    - target: {fileID: 224212230736072028, guid: c62c065cf1b123a48ae2674b1dbc0c74,
        type: 2}
      propertyPath: m_AnchorMin.x
      value: 0
      objectReference: {fileID: 0}
    - target: {fileID: 224212230736072028, guid: c62c065cf1b123a48ae2674b1dbc0c74,
        type: 2}
      propertyPath: m_AnchorMin.y
      value: 0
      objectReference: {fileID: 0}
    - target: {fileID: 224212230736072028, guid: c62c065cf1b123a48ae2674b1dbc0c74,
        type: 2}
      propertyPath: m_AnchorMax.x
      value: 0
      objectReference: {fileID: 0}
    - target: {fileID: 224212230736072028, guid: c62c065cf1b123a48ae2674b1dbc0c74,
        type: 2}
      propertyPath: m_AnchorMax.y
      value: 0
      objectReference: {fileID: 0}
    - target: {fileID: 224212230736072028, guid: c62c065cf1b123a48ae2674b1dbc0c74,
        type: 2}
      propertyPath: m_Pivot.x
      value: 0
      objectReference: {fileID: 0}
    - target: {fileID: 224212230736072028, guid: c62c065cf1b123a48ae2674b1dbc0c74,
        type: 2}
      propertyPath: m_Pivot.y
      value: 0
      objectReference: {fileID: 0}
    m_RemovedComponents: []
  m_SourcePrefab: {fileID: 100100000, guid: c62c065cf1b123a48ae2674b1dbc0c74, type: 2}
  m_RootGameObject: {fileID: 78633630}
  m_IsPrefabAsset: 0
--- !u!1 &1439476482
GameObject:
  m_ObjectHideFlags: 0
  m_CorrespondingSourceObject: {fileID: 1285875503102394, guid: c62c065cf1b123a48ae2674b1dbc0c74,
    type: 2}
  m_PrefabInternal: {fileID: 1231503986}
  serializedVersion: 6
  m_Component:
  - component: {fileID: 1439476483}
  - component: {fileID: 1439476485}
  - component: {fileID: 1439476484}
  m_Layer: 5
  m_Name: Failed
  m_TagString: Untagged
  m_Icon: {fileID: 0}
  m_NavMeshLayer: 0
  m_StaticEditorFlags: 0
  m_IsActive: 1
--- !u!224 &1439476483
RectTransform:
  m_ObjectHideFlags: 0
  m_CorrespondingSourceObject: {fileID: 224470380180724718, guid: c62c065cf1b123a48ae2674b1dbc0c74,
    type: 2}
  m_PrefabInternal: {fileID: 1231503986}
  m_GameObject: {fileID: 1439476482}
  m_LocalRotation: {x: 0, y: 0, z: 0, w: 1}
  m_LocalPosition: {x: 0, y: 0, z: 0}
  m_LocalScale: {x: 1, y: 1, z: 1}
  m_Children: []
  m_Father: {fileID: 912312931}
  m_RootOrder: 0
  m_LocalEulerAnglesHint: {x: 0, y: 0, z: 0}
  m_AnchorMin: {x: 0.5, y: 0.5}
  m_AnchorMax: {x: 0.5, y: 0.5}
  m_AnchoredPosition: {x: -0.0000076294, y: 8}
  m_SizeDelta: {x: 514, y: 67}
  m_Pivot: {x: 0.5, y: 0.5}
--- !u!114 &1439476484
MonoBehaviour:
  m_ObjectHideFlags: 0
  m_CorrespondingSourceObject: {fileID: 114585167092894254, guid: c62c065cf1b123a48ae2674b1dbc0c74,
    type: 2}
  m_PrefabInternal: {fileID: 1231503986}
  m_GameObject: {fileID: 1439476482}
  m_Enabled: 1
  m_EditorHideFlags: 0
  m_Script: {fileID: 708705254, guid: f5f67c52d1564df4a8936ccd202a3bd8, type: 3}
  m_Name: 
  m_EditorClassIdentifier: 
  m_Material: {fileID: 0}
  m_Color: {r: 1, g: 1, b: 1, a: 1}
  m_RaycastTarget: 1
  m_OnCullStateChanged:
    m_PersistentCalls:
      m_Calls: []
    m_TypeName: UnityEngine.UI.MaskableGraphic+CullStateChangedEvent, UnityEngine.UI,
      Version=1.0.0.0, Culture=neutral, PublicKeyToken=null
  m_FontData:
    m_Font: {fileID: 12800000, guid: 0e2f3cc82c877dd498854d3394c3f74d, type: 3}
    m_FontSize: 62
    m_FontStyle: 0
    m_BestFit: 0
    m_MinSize: 10
    m_MaxSize: 66
    m_Alignment: 1
    m_AlignByGeometry: 0
    m_RichText: 1
    m_HorizontalOverflow: 0
    m_VerticalOverflow: 0
    m_LineSpacing: 1
  m_Text: FAILED
--- !u!222 &1439476485
CanvasRenderer:
  m_ObjectHideFlags: 0
  m_CorrespondingSourceObject: {fileID: 222628571671701852, guid: c62c065cf1b123a48ae2674b1dbc0c74,
    type: 2}
  m_PrefabInternal: {fileID: 1231503986}
  m_GameObject: {fileID: 1439476482}
  m_CullTransparentMesh: 0
--- !u!1 &1680466962
GameObject:
  m_ObjectHideFlags: 0
  m_CorrespondingSourceObject: {fileID: 1328672837173954, guid: c62c065cf1b123a48ae2674b1dbc0c74,
    type: 2}
  m_PrefabInternal: {fileID: 1231503986}
  serializedVersion: 6
  m_Component:
  - component: {fileID: 1680466963}
  - component: {fileID: 1680466965}
  - component: {fileID: 1680466964}
  m_Layer: 5
  m_Name: Numb
  m_TagString: Untagged
  m_Icon: {fileID: 0}
  m_NavMeshLayer: 0
  m_StaticEditorFlags: 0
  m_IsActive: 1
--- !u!224 &1680466963
RectTransform:
  m_ObjectHideFlags: 0
  m_CorrespondingSourceObject: {fileID: 224745863311429174, guid: c62c065cf1b123a48ae2674b1dbc0c74,
    type: 2}
  m_PrefabInternal: {fileID: 1231503986}
  m_GameObject: {fileID: 1680466962}
  m_LocalRotation: {x: -0, y: -0, z: -0, w: 1}
  m_LocalPosition: {x: 0, y: 0, z: 0}
  m_LocalScale: {x: 0.41256, y: 0.41256, z: 0.41256}
  m_Children: []
  m_Father: {fileID: 78633634}
  m_RootOrder: 10
  m_LocalEulerAnglesHint: {x: 0, y: 0, z: 0}
  m_AnchorMin: {x: 0.5, y: 0.5}
  m_AnchorMax: {x: 0.5, y: 0.5}
  m_AnchoredPosition: {x: 7.7999907, y: -105.70001}
  m_SizeDelta: {x: 514, y: 67}
  m_Pivot: {x: 0.5, y: 0.5}
--- !u!114 &1680466964
MonoBehaviour:
  m_ObjectHideFlags: 0
  m_CorrespondingSourceObject: {fileID: 114759294068066676, guid: c62c065cf1b123a48ae2674b1dbc0c74,
    type: 2}
  m_PrefabInternal: {fileID: 1231503986}
  m_GameObject: {fileID: 1680466962}
  m_Enabled: 1
  m_EditorHideFlags: 0
  m_Script: {fileID: 708705254, guid: f5f67c52d1564df4a8936ccd202a3bd8, type: 3}
  m_Name: 
  m_EditorClassIdentifier: 
  m_Material: {fileID: 0}
  m_Color: {r: 0.23529413, g: 0.30980393, b: 0.3254902, a: 1}
  m_RaycastTarget: 1
  m_OnCullStateChanged:
    m_PersistentCalls:
      m_Calls: []
    m_TypeName: UnityEngine.UI.MaskableGraphic+CullStateChangedEvent, UnityEngine.UI,
      Version=1.0.0.0, Culture=neutral, PublicKeyToken=null
  m_FontData:
    m_Font: {fileID: 12800000, guid: 0e2f3cc82c877dd498854d3394c3f74d, type: 3}
    m_FontSize: 27
    m_FontStyle: 0
    m_BestFit: 0
    m_MinSize: 10
    m_MaxSize: 66
    m_Alignment: 1
    m_AlignByGeometry: 0
    m_RichText: 1
    m_HorizontalOverflow: 0
    m_VerticalOverflow: 0
    m_LineSpacing: 1
  m_Text: 8
--- !u!222 &1680466965
CanvasRenderer:
  m_ObjectHideFlags: 0
  m_CorrespondingSourceObject: {fileID: 222059422057481488, guid: c62c065cf1b123a48ae2674b1dbc0c74,
    type: 2}
  m_PrefabInternal: {fileID: 1231503986}
  m_GameObject: {fileID: 1680466962}
  m_CullTransparentMesh: 0
--- !u!1 &1875850445
GameObject:
  m_ObjectHideFlags: 0
  m_CorrespondingSourceObject: {fileID: 1845163549618270, guid: c62c065cf1b123a48ae2674b1dbc0c74,
    type: 2}
  m_PrefabInternal: {fileID: 1231503986}
  serializedVersion: 6
  m_Component:
  - component: {fileID: 1875850446}
  - component: {fileID: 1875850448}
  - component: {fileID: 1875850447}
  m_Layer: 5
  m_Name: Coin
  m_TagString: Untagged
  m_Icon: {fileID: 0}
  m_NavMeshLayer: 0
  m_StaticEditorFlags: 0
  m_IsActive: 1
--- !u!224 &1875850446
RectTransform:
  m_ObjectHideFlags: 0
  m_CorrespondingSourceObject: {fileID: 224890664854741546, guid: c62c065cf1b123a48ae2674b1dbc0c74,
    type: 2}
  m_PrefabInternal: {fileID: 1231503986}
  m_GameObject: {fileID: 1875850445}
  m_LocalRotation: {x: 0, y: 0, z: 0, w: 1}
  m_LocalPosition: {x: 0, y: 0, z: 0}
  m_LocalScale: {x: 0.33493343, y: 0.33493343, z: 0.33493343}
  m_Children: []
  m_Father: {fileID: 78633634}
  m_RootOrder: 9
  m_LocalEulerAnglesHint: {x: 0, y: 0, z: 0}
  m_AnchorMin: {x: 0.5, y: 0.5}
  m_AnchorMax: {x: 0.5, y: 0.5}
  m_AnchoredPosition: {x: -12.6, y: -97}
  m_SizeDelta: {x: 50, y: 53}
  m_Pivot: {x: 0.5, y: 0.5}
--- !u!114 &1875850447
MonoBehaviour:
  m_ObjectHideFlags: 0
  m_CorrespondingSourceObject: {fileID: 114517057866922678, guid: c62c065cf1b123a48ae2674b1dbc0c74,
    type: 2}
  m_PrefabInternal: {fileID: 1231503986}
  m_GameObject: {fileID: 1875850445}
  m_Enabled: 1
  m_EditorHideFlags: 0
  m_Script: {fileID: -765806418, guid: f5f67c52d1564df4a8936ccd202a3bd8, type: 3}
  m_Name: 
  m_EditorClassIdentifier: 
  m_Material: {fileID: 0}
  m_Color: {r: 1, g: 1, b: 1, a: 1}
  m_RaycastTarget: 1
  m_OnCullStateChanged:
    m_PersistentCalls:
      m_Calls: []
    m_TypeName: UnityEngine.UI.MaskableGraphic+CullStateChangedEvent, UnityEngine.UI,
      Version=1.0.0.0, Culture=neutral, PublicKeyToken=null
  m_Sprite: {fileID: 21300000, guid: a4c1b4b322f81284caa8208b29fd03d5, type: 3}
  m_Type: 0
  m_PreserveAspect: 0
  m_FillCenter: 1
  m_FillMethod: 4
  m_FillAmount: 1
  m_FillClockwise: 1
  m_FillOrigin: 0
--- !u!222 &1875850448
CanvasRenderer:
  m_ObjectHideFlags: 0
  m_CorrespondingSourceObject: {fileID: 222957861193445034, guid: c62c065cf1b123a48ae2674b1dbc0c74,
    type: 2}
  m_PrefabInternal: {fileID: 1231503986}
  m_GameObject: {fileID: 1875850445}
  m_CullTransparentMesh: 0
--- !u!1 &2109430582
GameObject:
  m_ObjectHideFlags: 0
  m_CorrespondingSourceObject: {fileID: 1320046334615638, guid: c62c065cf1b123a48ae2674b1dbc0c74,
    type: 2}
  m_PrefabInternal: {fileID: 1231503986}
  serializedVersion: 6
  m_Component:
  - component: {fileID: 2109430583}
  - component: {fileID: 2109430585}
  - component: {fileID: 2109430584}
  m_Layer: 5
  m_Name: Score
  m_TagString: Untagged
  m_Icon: {fileID: 0}
  m_NavMeshLayer: 0
  m_StaticEditorFlags: 0
  m_IsActive: 1
--- !u!224 &2109430583
RectTransform:
  m_ObjectHideFlags: 0
  m_CorrespondingSourceObject: {fileID: 224857797644347712, guid: c62c065cf1b123a48ae2674b1dbc0c74,
    type: 2}
  m_PrefabInternal: {fileID: 1231503986}
  m_GameObject: {fileID: 2109430582}
  m_LocalRotation: {x: -0, y: -0, z: -0, w: 1}
  m_LocalPosition: {x: 0, y: 0, z: 0}
  m_LocalScale: {x: 0.41256, y: 0.41256, z: 0.41256}
  m_Children: []
  m_Father: {fileID: 78633634}
  m_RootOrder: 8
  m_LocalEulerAnglesHint: {x: 0, y: 0, z: 0}
  m_AnchorMin: {x: 0.5, y: 0.5}
  m_AnchorMax: {x: 0.5, y: 0.5}
  m_AnchoredPosition: {x: 0, y: -75.5}
  m_SizeDelta: {x: 514, y: 67}
  m_Pivot: {x: 0.5, y: 0.5}
--- !u!114 &2109430584
MonoBehaviour:
  m_ObjectHideFlags: 0
  m_CorrespondingSourceObject: {fileID: 114133974144623524, guid: c62c065cf1b123a48ae2674b1dbc0c74,
    type: 2}
  m_PrefabInternal: {fileID: 1231503986}
  m_GameObject: {fileID: 2109430582}
  m_Enabled: 1
  m_EditorHideFlags: 0
  m_Script: {fileID: 708705254, guid: f5f67c52d1564df4a8936ccd202a3bd8, type: 3}
  m_Name: 
  m_EditorClassIdentifier: 
  m_Material: {fileID: 0}
  m_Color: {r: 0.9803922, g: 0.21568629, b: 0.34901962, a: 1}
  m_RaycastTarget: 1
  m_OnCullStateChanged:
    m_PersistentCalls:
      m_Calls: []
    m_TypeName: UnityEngine.UI.MaskableGraphic+CullStateChangedEvent, UnityEngine.UI,
      Version=1.0.0.0, Culture=neutral, PublicKeyToken=null
  m_FontData:
    m_Font: {fileID: 12800000, guid: 0e2f3cc82c877dd498854d3394c3f74d, type: 3}
    m_FontSize: 27
    m_FontStyle: 0
    m_BestFit: 0
    m_MinSize: 10
    m_MaxSize: 66
    m_Alignment: 1
    m_AlignByGeometry: 0
    m_RichText: 1
    m_HorizontalOverflow: 0
    m_VerticalOverflow: 0
    m_LineSpacing: 1
  m_Text: 12,889
--- !u!222 &2109430585
CanvasRenderer:
  m_ObjectHideFlags: 0
  m_CorrespondingSourceObject: {fileID: 222639501880145466, guid: c62c065cf1b123a48ae2674b1dbc0c74,
    type: 2}
  m_PrefabInternal: {fileID: 1231503986}
  m_GameObject: {fileID: 2109430582}
  m_CullTransparentMesh: 0
--- !u!1 &2109994458
GameObject:
  m_ObjectHideFlags: 0
  m_CorrespondingSourceObject: {fileID: 1689261512087378, guid: c62c065cf1b123a48ae2674b1dbc0c74,
    type: 2}
  m_PrefabInternal: {fileID: 1231503986}
  serializedVersion: 6
  m_Component:
  - component: {fileID: 2109994459}
  - component: {fileID: 2109994462}
  - component: {fileID: 2109994461}
  - component: {fileID: 2109994460}
  m_Layer: 5
  m_Name: Play
  m_TagString: Untagged
  m_Icon: {fileID: 0}
  m_NavMeshLayer: 0
  m_StaticEditorFlags: 0
  m_IsActive: 1
--- !u!224 &2109994459
RectTransform:
  m_ObjectHideFlags: 0
  m_CorrespondingSourceObject: {fileID: 224604693405540080, guid: c62c065cf1b123a48ae2674b1dbc0c74,
    type: 2}
  m_PrefabInternal: {fileID: 1231503986}
  m_GameObject: {fileID: 2109994458}
  m_LocalRotation: {x: 0, y: 0, z: 0, w: 1}
  m_LocalPosition: {x: 0, y: 0, z: 0}
  m_LocalScale: {x: 0.41328752, y: 0.41328758, z: 0.41328758}
  m_Children:
  - {fileID: 121812103}
  m_Father: {fileID: 78633634}
  m_RootOrder: 11
  m_LocalEulerAnglesHint: {x: 0, y: 0, z: 0}
  m_AnchorMin: {x: 0.5, y: 0.5}
  m_AnchorMax: {x: 0.5, y: 0.5}
  m_AnchoredPosition: {x: 57.4, y: -130.4}
  m_SizeDelta: {x: 86, y: 94}
  m_Pivot: {x: 0.5, y: 0.5}
--- !u!114 &2109994460
MonoBehaviour:
  m_ObjectHideFlags: 0
  m_CorrespondingSourceObject: {fileID: 114729934715448000, guid: c62c065cf1b123a48ae2674b1dbc0c74,
    type: 2}
  m_PrefabInternal: {fileID: 1231503986}
  m_GameObject: {fileID: 2109994458}
  m_Enabled: 1
  m_EditorHideFlags: 0
  m_Script: {fileID: 1392445389, guid: f5f67c52d1564df4a8936ccd202a3bd8, type: 3}
  m_Name: 
  m_EditorClassIdentifier: 
  m_Navigation:
    m_Mode: 3
    m_SelectOnUp: {fileID: 0}
    m_SelectOnDown: {fileID: 0}
    m_SelectOnLeft: {fileID: 0}
    m_SelectOnRight: {fileID: 0}
  m_Transition: 1
  m_Colors:
    m_NormalColor: {r: 1, g: 1, b: 1, a: 1}
    m_HighlightedColor: {r: 0.9607843, g: 0.9607843, b: 0.9607843, a: 1}
    m_PressedColor: {r: 0.78431374, g: 0.78431374, b: 0.78431374, a: 1}
    m_DisabledColor: {r: 0.78431374, g: 0.78431374, b: 0.78431374, a: 0.5019608}
    m_ColorMultiplier: 1
    m_FadeDuration: 0.1
  m_SpriteState:
    m_HighlightedSprite: {fileID: 0}
    m_PressedSprite: {fileID: 0}
    m_DisabledSprite: {fileID: 0}
  m_AnimationTriggers:
    m_NormalTrigger: Normal
    m_HighlightedTrigger: Highlighted
    m_PressedTrigger: Pressed
    m_DisabledTrigger: Disabled
  m_Interactable: 1
  m_TargetGraphic: {fileID: 2109994461}
  m_OnClick:
    m_PersistentCalls:
      m_Calls: []
    m_TypeName: UnityEngine.UI.Button+ButtonClickedEvent, UnityEngine.UI, Version=1.0.0.0,
      Culture=neutral, PublicKeyToken=null
--- !u!114 &2109994461
MonoBehaviour:
  m_ObjectHideFlags: 0
  m_CorrespondingSourceObject: {fileID: 114345697552628342, guid: c62c065cf1b123a48ae2674b1dbc0c74,
    type: 2}
  m_PrefabInternal: {fileID: 1231503986}
  m_GameObject: {fileID: 2109994458}
  m_Enabled: 1
  m_EditorHideFlags: 0
  m_Script: {fileID: -765806418, guid: f5f67c52d1564df4a8936ccd202a3bd8, type: 3}
  m_Name: 
  m_EditorClassIdentifier: 
  m_Material: {fileID: 0}
  m_Color: {r: 1, g: 1, b: 1, a: 1}
  m_RaycastTarget: 1
  m_OnCullStateChanged:
    m_PersistentCalls:
      m_Calls: []
    m_TypeName: UnityEngine.UI.MaskableGraphic+CullStateChangedEvent, UnityEngine.UI,
      Version=1.0.0.0, Culture=neutral, PublicKeyToken=null
  m_Sprite: {fileID: 21300000, guid: 1a4b5165760db4e4680b751b7dfe51a9, type: 3}
  m_Type: 0
  m_PreserveAspect: 0
  m_FillCenter: 1
  m_FillMethod: 4
  m_FillAmount: 1
  m_FillClockwise: 1
  m_FillOrigin: 0
--- !u!222 &2109994462
CanvasRenderer:
  m_ObjectHideFlags: 0
  m_CorrespondingSourceObject: {fileID: 222940516690179172, guid: c62c065cf1b123a48ae2674b1dbc0c74,
    type: 2}
  m_PrefabInternal: {fileID: 1231503986}
  m_GameObject: {fileID: 2109994458}
  m_CullTransparentMesh: 0
