%YAML 1.1
%TAG !u! tag:unity3d.com,2011:
--- !u!114 &11400000
MonoBehaviour:
  m_ObjectHideFlags: 0
  m_CorrespondingSourceObject: {fileID: 0}
  m_PrefabInstance: {fileID: 0}
  m_PrefabAsset: {fileID: 0}
  m_GameObject: {fileID: 0}
  m_Enabled: 1
  m_EditorHideFlags: 0
  m_Script: {fileID: 11500000, guid: e8139a16caeb03b42a2b8f85244dae98, type: 3}
  m_Name: PlayerConfig
  m_EditorClassIdentifier: 
  jumpForce: 9
  speed: 7
  gravityModifier: 0.4
